DateTime,Name,Country,Volatility,Actual,Previous,Consensus
03/01/2018 01:45:00,Caixin Manufacturing PMI,China,2,51.600,51.500,51.300
03/01/2018 06:49:14,Gross Domestic Product s.a. (QoQ),Switzerland,2,0.600,0.600,0.600
03/01/2018 06:49:21,Gross Domestic Product (YoY),Switzerland,2,1.900,1.200,1.800
03/01/2018 08:15:00,Real Retail Sales (YoY),Switzerland,2,-1.400,0.600,1.100
03/01/2018 08:55:00,Markit Manufacturing PMI,Germany,2,60.600,60.300,60.300
03/01/2018 09:00:00,Unemployment,Italy,2,11.100,10.800,10.800
03/01/2018 09:00:00,Markit Manufacturing PMI,European Monetary Union,2,58.600,58.500,58.500
03/01/2018 09:30:00,Markit Manufacturing PMI,United Kingdom,2,55.200,55.300,55.000
03/01/2018 09:30:00,Mortgage Approvals,United Kingdom,2,67.478,61.039,62.000
03/01/2018 10:00:00,Unemployment Rate,European Monetary Union,2,8.600,8.700,8.600
03/01/2018 13:30:00,Personal Consumption Expenditures - Price Index (MoM),United States,2,0.400,0.100,0.000
03/01/2018 13:30:00,Personal Consumption Expenditures - Price Index (YoY),United States,2,1.700,1.700,1.600
03/01/2018 13:30:00,Core Personal Consumption Expenditure - Price Index (MoM),United States,3,0.300,0.200,0.300
03/01/2018 13:30:00,Personal Income (MoM),United States,2,0.400,0.400,0.300
03/01/2018 13:30:00,Personal Spending,United States,2,0.200,0.400,0.200
03/01/2018 13:30:00,Core Personal Consumption Expenditure - Price Index (YoY),United States,3,1.500,1.500,1.500
03/01/2018 13:30:00,Current Account,Canada,2,-16.350,-19.350,-17.800
03/01/2018 13:30:00,Continuing Jobless Claims,United States,2,1.931,1.875,1.930
03/01/2018 13:30:00,Initial Jobless Claims,United States,2,210.000,222.000,226.000
03/01/2018 14:30:00,Markit Manufacturing PMI,Canada,2,55.600,55.900,55.800
03/01/2018 15:00:00,Fed's Powell Speech,United States,3,,,
03/01/2018 15:00:00,ISM Manufacturing PMI,United States,3,60.800,59.100,58.700
03/01/2018 15:00:00,ISM Prices Paid,United States,3,74.200,72.700,70.500
03/01/2018 16:00:00,Fed's William Dudley speech,United States,2,,,
03/01/2018 21:45:00,Building Permits s.a. (MoM),New Zealand,2,0.200,-9.600,
03/01/2018 23:30:00,"Tokyo CPI ex Food, Energy (YoY)",Japan,2,0.500,0.400,0.500
03/01/2018 23:30:00,Tokyo Consumer Price Index (YoY),Japan,2,1.400,1.300,1.400
03/01/2018 23:30:00,Tokyo CPI ex Fresh Food (YoY),Japan,3,0.900,0.700,0.800
03/01/2018 23:30:00,"National CPI Ex Food, Energy (YoY)",Japan,2,0.500,0.300,0.900
03/01/2018 23:30:00,Unemployment Rate,Japan,2,2.400,2.800,2.700
03/01/2018 23:30:00,Jobs/applicants ratio,Japan,2,1.590,1.590,1.600
03/02/2018 00:00:00,HIA New Home Sales (MoM),Australia,2,-2.100,0.700,
03/02/2018 00:00:00,BOE's Governor Carney speech,United Kingdom,3,,,
03/02/2018 07:00:00,Retail Sales (MoM),Germany,2,-0.700,-1.900,0.900
03/02/2018 07:00:00,Retail Sales (YoY),Germany,2,2.300,-1.900,3.500
03/02/2018 08:10:00,ECB's Mersch speech,European Monetary Union,2,,,
03/02/2018 09:00:00,Gross Domestic Product (YoY),Italy,2,1.600,1.600,1.600
03/02/2018 09:00:00,Gross Domestic Product (QoQ),Italy,2,0.300,0.300,0.300
03/02/2018 09:30:00,PMI Construction,United Kingdom,2,51.400,50.200,50.500
03/02/2018 10:00:00,BOE's Governor Carney speech,United Kingdom,3,,,
03/02/2018 10:00:00,Producer Price Index (YoY),European Monetary Union,2,1.500,2.200,1.600
03/02/2018 13:30:00,Gross Domestic Product Annualized (QoQ),Canada,3,1.700,1.700,2.000
03/02/2018 13:30:00,Gross Domestic Product (MoM),Canada,2,0.100,0.400,0.100
03/02/2018 13:30:00,UK Prime Minister Theresa May speech,United Kingdom,3,,,
03/02/2018 18:00:00,Baker Hughes US Oil Rig Count,United States,2,800.000,799.000,
03/04/2018 00:00:00,Parliamentary elections,Italy,3,,,
03/05/2018 00:30:00,Building Permits (MoM),Australia,2,17.100,-20.000,4.000
03/05/2018 01:45:00,Caixin China Services PMI,China,2,54.200,54.700,
03/05/2018 08:15:00,Markit Services PMI,Spain,2,57.300,56.900,56.400
03/05/2018 08:55:00,Markit Services PMI,Germany,2,55.300,55.300,55.300
03/05/2018 08:55:00,Markit PMI Composite,Germany,2,57.600,57.400,57.400
03/05/2018 09:00:00,Markit Services PMI,European Monetary Union,2,56.200,56.700,56.700
03/05/2018 09:00:00,Markit PMI Composite,European Monetary Union,2,57.100,57.500,57.500
03/05/2018 09:30:00,Markit Services PMI,United Kingdom,2,54.500,53.000,53.300
03/05/2018 14:45:00,Markit PMI Composite,United States,2,55.800,55.900,55.500
03/05/2018 14:45:00,Markit Services PMI,United States,2,55.900,55.900,54.600
03/05/2018 15:00:00,ISM Non-Manufacturing PMI,United States,2,59.500,59.900,59.000
03/05/2018 18:15:00,Fed's Quarles speech,United States,2,,,
03/06/2018 00:01:00,BRC Like-For-Like Retail Sales (YoY),United Kingdom,2,0.600,0.600,0.400
03/06/2018 00:30:00,Retail Sales s.a. (MoM),Australia,2,0.100,-0.500,0.400
03/06/2018 03:30:00,RBA Rate Statement,Australia,3,,,
03/06/2018 03:30:00,RBA Interest Rate Decision,Australia,3,1.500,1.500,1.500
03/06/2018 08:15:00,Consumer Price Index (YoY),Switzerland,2,0.600,0.700,0.600
03/06/2018 12:30:00,Fed's William Dudley speech,United States,2,,,
03/06/2018 15:00:00,Factory Orders (MoM),United States,2,-1.400,1.700,-1.300
03/06/2018 15:00:00,Ivey Purchasing Managers Index,Canada,2,58.400,51.300,
03/06/2018 15:00:00,Ivey Purchasing Managers Index s.a,Canada,2,59.600,55.200,56.300
03/06/2018 18:15:00,MPC Member Haldane Speech,United Kingdom,2,,,
03/06/2018 18:18:40,GDT Price Index,New Zealand,2,-0.600,-0.500,
03/06/2018 21:35:00,RBA's Governor Philip Lowe Speech,Australia,3,,,
03/06/2018 22:30:00,AiG Performance of Construction Index,Australia,2,56.000,54.300,
03/06/2018 22:30:00,FOMC Member Brainard Speech,United States,2,,,
03/07/2018 00:30:00,Gross Domestic Product (QoQ),Australia,3,0.400,0.600,0.600
03/07/2018 00:30:00,Gross Domestic Product (YoY),Australia,2,2.400,2.800,2.500
03/07/2018 01:30:00,FOMC Member Kaplan Speech,United States,2,,,
03/07/2018 05:00:00,Leading Economic Index,Japan,2,104.800,107.400,106.200
03/07/2018 10:00:00,Gross Domestic Product s.a. (YoY),European Monetary Union,3,2.700,2.700,2.700
03/07/2018 10:00:00,Gross Domestic Product s.a. (QoQ),European Monetary Union,3,0.600,0.600,0.600
03/07/2018 13:00:00,FOMC Member Bostic speech,United States,2,,,
03/07/2018 13:15:00,ADP Employment Change,United States,2,235.000,234.000,195.000
03/07/2018 13:20:00,Fed's William Dudley speech,United States,2,,,
03/07/2018 13:30:00,Trade Balance,United States,2,-56.600,-53.100,-55.100
03/07/2018 13:30:00,Nonfarm Productivity,United States,2,0.000,-0.100,-0.100
03/07/2018 13:30:00,Unit Labor Costs,United States,2,2.500,2.000,2.100
03/07/2018 13:30:00,International Merchandise Trade,Canada,2,-1.910,-3.190,-2.500
03/07/2018 15:00:00,BoC Rate Statement,Canada,3,,,
03/07/2018 15:00:00,BoC Interest Rate Decision,Canada,3,1.250,1.250,1.250
03/07/2018 19:00:00,Fed's Beige Book,United States,2,,,
03/07/2018 20:00:00,Consumer Credit Change,United States,2,13.910,18.450,17.900
03/07/2018 23:50:00,Foreign investment in Japan stocks,Japan,2,-463.400,-53.600,
03/07/2018 23:50:00,Foreign bond investment,Japan,2,-1188.500,201.300,
03/08/2018 00:30:00,Trade Balance,Australia,2,1055.000,-1358.000,300.000
03/08/2018 00:30:00,Exports,Australia,2,4.000,2.000,
03/08/2018 00:30:00,Imports,Australia,2,-2.000,6.000,
03/08/2018 02:00:00,Exports (YoY),China,2,44.500,11.100,13.600
03/08/2018 02:00:00,Exports (YoY) CNY,China,2,36.200,6.000,6.900
03/08/2018 02:00:00,Imports (YoY) CNY,China,2,-0.200,30.200,9.700
03/08/2018 02:00:00,Trade Balance USD,China,2,33.740,20.340,0.600
03/08/2018 02:00:00,Imports (YoY),China,2,6.300,36.900,9.700
03/08/2018 02:00:00,Trade Balance CNY,China,2,224.900,135.800,-70.000
03/08/2018 06:45:00,Unemployment Rate s.a (MoM),Switzerland,2,2.900,3.000,3.000
03/08/2018 12:45:00,ECB Deposit Rate Decision,European Monetary Union,3,-0.400,-0.400,-0.400
03/08/2018 12:45:00,ECB Interest Rate Decision,European Monetary Union,3,0.000,0.000,0.000
03/08/2018 13:15:00,Housing Starts s.a (YoY),Canada,2,229.700,216.200,216.600
03/08/2018 13:30:00,Initial Jobless Claims,United States,2,231.000,210.000,220.000
03/08/2018 13:30:00,Continuing Jobless Claims,United States,2,1.870,1.931,1.921
03/08/2018 13:30:00,ECB Monetary policy statement and press conference,European Monetary Union,3,,,
03/08/2018 16:00:00,BoC Governor Poloz Speech,Canada,3,,,
03/08/2018 20:35:00,BoC Gov Council Member Lane Speech,Canada,2,,,
03/08/2018 23:30:00,Overall Household Spending (YoY),Japan,2,1.900,-0.100,-1.200
03/09/2018 01:30:00,Consumer Price Index (MoM),China,2,1.200,0.600,0.800
03/09/2018 01:30:00,Producer Price Index (YoY),China,2,3.700,4.300,3.800
03/09/2018 01:30:00,Consumer Price Index (YoY),China,2,2.900,1.500,2.500
03/09/2018 02:46:00,BoJ Interest Rate Decision,Japan,3,-0.100,-0.100,-0.100
03/09/2018 02:46:00,"BoJ Monetary Policy Statement ",Japan,3,,,
03/09/2018 06:30:00,BoJ Press Conference,Japan,3,,,
03/09/2018 07:00:00,Industrial Production n.s.a. w.d.a. (YoY),Germany,2,5.500,6.500,6.000
03/09/2018 07:00:00,Imports (MoM),Germany,2,-0.500,1.400,0.000
03/09/2018 07:00:00,Current Account n.s.a.,Germany,2,22.000,27.800,17.200
03/09/2018 07:00:00,Exports (MoM),Germany,2,-0.500,0.300,0.300
03/09/2018 07:00:00,Trade Balance s.a.,Germany,2,21.300,21.400,21.100
03/09/2018 09:30:00,Industrial Production (MoM),United Kingdom,2,1.300,-1.300,1.500
03/09/2018 09:30:00,Manufacturing Production (MoM),United Kingdom,2,0.100,0.300,0.200
03/09/2018 09:30:00,Manufacturing Production (YoY),United Kingdom,2,2.700,1.400,2.800
03/09/2018 13:30:00,Labor Force Participation Rate,United States,2,63.000,62.700,62.500
03/09/2018 13:30:00,Average Hourly Earnings (MoM),United States,2,0.100,0.300,0.200
03/09/2018 13:30:00,Unemployment Rate,United States,2,4.100,4.100,4.000
03/09/2018 13:30:00,Average Hourly Earnings (YoY),United States,3,2.600,2.900,2.800
03/09/2018 13:30:00,Nonfarm Payrolls,United States,3,313.000,200.000,200.000
03/09/2018 13:30:00,Participation rate,Canada,2,65.500,65.500,65.600
03/09/2018 13:30:00,Unemployment Rate,Canada,3,5.800,5.900,5.900
03/09/2018 13:30:00,Net Change in Employment,Canada,3,15.400,-88.000,20.000
03/09/2018 17:40:00,Federal Reserve Bank of Boston President Rosengren Speech,United States,2,,,
03/09/2018 18:00:00,Baker Hughes US Oil Rig Count,United States,2,796.000,800.000,
03/12/2018 00:00:00,Eurogroup meeting,European Monetary Union,2,,,
03/12/2018 18:00:00,Monthly Budget Statement,United States,2,-215.000,49.000,-216.000
03/12/2018 23:45:00,RBNZ Governor Grant Spencer speech,New Zealand,3,,,
03/13/2018 00:00:00,EcoFin Meeting,European Monetary Union,2,,,
03/13/2018 00:10:00,RBA Assistant Governor Bullock Speech,Australia,2,,,
03/13/2018 00:30:00,Investment Lending for Homes,Australia,2,1.100,-2.600,
03/13/2018 00:30:00,Home Loans,Australia,2,-1.100,-2.300,-0.100
03/13/2018 12:30:00,Consumer Price Index (MoM),United States,2,0.200,0.500,0.200
03/13/2018 12:30:00,Consumer Price Index Ex Food & Energy (MoM),United States,2,0.200,0.300,0.200
03/13/2018 12:30:00,Consumer Price Index Core s.a,United States,2,255.751,255.290,254.860
03/13/2018 12:30:00,Consumer Price Index Ex Food & Energy (YoY),United States,3,1.800,1.800,1.800
03/13/2018 12:30:00,Consumer Price Index (YoY),United States,2,2.200,2.100,2.200
03/13/2018 12:30:00,Budget Report,United Kingdom,3,,,
03/13/2018 14:30:00,BoC Governor Poloz Speech,Canada,3,,,
03/13/2018 22:10:00,RBA Assistant Governor Kent Speech,Australia,2,,,
03/13/2018 23:30:00,Westpac Consumer Confidence,Australia,2,0.200,-2.300,
03/13/2018 23:50:00,BoJ Monetary Policy Meeting Minutes,Japan,3,,,
03/13/2018 23:50:00,Machinery Orders (YoY),Japan,2,2.900,-5.000,0.600
03/13/2018 23:50:00,Machinery Orders (MoM),Japan,2,8.200,-11.900,5.600
03/14/2018 00:00:00,Eurogroup meeting,European Monetary Union,2,,,
03/14/2018 02:00:00,Retail Sales (YoY),China,2,9.700,9.400,9.800
03/14/2018 02:00:00,Industrial Production (YoY),China,2,7.200,6.200,6.100
03/14/2018 07:00:00,Harmonized Index of Consumer Prices (YoY),Germany,3,1.200,1.200,1.200
03/14/2018 08:00:00,ECB President Draghi's Speech,European Monetary Union,3,,,
03/14/2018 08:45:00,ECB's Praet Speech,European Monetary Union,2,,,
03/14/2018 10:00:00,Industrial Production s.a. (MoM),European Monetary Union,2,-1.000,0.400,-0.400
03/14/2018 10:45:00,ECB Vice President Vitor Constancio speech,European Monetary Union,2,,,
03/14/2018 12:30:00,Retail Sales control group,United States,3,0.100,0.000,0.400
03/14/2018 12:30:00,Retail Sales (MoM),United States,2,-0.100,-0.300,0.300
03/14/2018 12:30:00,Retail Sales ex Autos (MoM),United States,3,0.200,0.000,0.400
03/14/2018 12:30:00,Producer Price Index ex Food & Energy (YoY),United States,2,2.500,2.200,2.500
03/14/2018 16:15:00,ECB Cœuré Speech,European Monetary Union,2,,,
03/14/2018 21:45:00,Gross Domestic Product (QoQ),New Zealand,3,0.600,0.600,0.700
03/14/2018 21:45:00,Gross Domestic Product (YoY),New Zealand,2,2.900,2.700,3.100
03/14/2018 23:50:00,Foreign investment in Japan stocks,Japan,2,-432.500,-463.400,
03/14/2018 23:50:00,Foreign bond investment,Japan,2,1090.000,-1188.500,
03/15/2018 00:00:00,EcoFin Meeting,European Monetary Union,2,,,
03/15/2018 00:00:00,Consumer Inflation Expectation,Australia,2,3.700,3.600,
03/15/2018 00:30:00,RBA Bulletin,Australia,2,,,
03/15/2018 07:45:00,Consumer Price Index (EU norm) (YoY),France,2,1.300,1.400,1.300
03/15/2018 08:30:00,SNB Quarterly Bulletin,Switzerland,2,,,
03/15/2018 08:30:00,SNB Interest Rate Decision,Switzerland,3,-0.750,-0.750,-0.750
03/15/2018 12:30:00,Initial Jobless Claims,United States,2,226.000,231.000,226.000
03/15/2018 12:30:00,Continuing Jobless Claims,United States,2,1.879,1.870,1.900
03/15/2018 12:30:00,Philadelphia Fed Manufacturing Survey,United States,2,22.300,25.800,23.000
03/15/2018 15:45:00,ECB's Lautenschläger Speech,European Monetary Union,2,,,
03/15/2018 21:30:00,Business NZ PMI,New Zealand,2,53.400,55.600,
03/15/2018 22:45:00,RBA Assist Gov Debelle Speech,Australia,2,,,
03/16/2018 02:00:00,FDI - Foreign Direct Investment (YTD) (YoY),China,2,0.500,0.300,
03/16/2018 10:00:00,Labour cost,European Monetary Union,2,1.500,1.600,1.800
03/16/2018 10:00:00,Consumer Price Index (YoY),European Monetary Union,3,1.100,1.200,1.200
03/16/2018 10:00:00,Consumer Price Index (MoM),European Monetary Union,2,0.200,-0.900,0.200
03/16/2018 10:00:00,Consumer Price Index - Core (MoM),European Monetary Union,2,0.400,-1.700,0.400
03/16/2018 10:00:00,Consumer Price Index - Core (YoY),European Monetary Union,3,1.000,1.000,1.000
03/16/2018 12:30:00,Housing Starts (MoM),United States,2,1.236,1.326,1.290
03/16/2018 12:30:00,Building Permits (MoM),United States,2,1.298,1.396,1.320
03/16/2018 13:15:00,Capacity Utilization,United States,2,78.100,77.500,77.700
03/16/2018 13:15:00,Industrial Production (MoM),United States,2,1.100,-0.100,0.300
03/16/2018 14:00:00,Michigan Consumer Sentiment Index,United States,2,102.000,99.700,99.300
03/16/2018 17:00:00,Baker Hughes US Oil Rig Count,United States,2,800.000,796.000,
03/18/2018 23:50:00,Imports (YoY),Japan,2,16.500,7.900,17.100
03/18/2018 23:50:00,Merchandise Trade Balance Total,Japan,2,3.400,-943.400,-99.600
03/18/2018 23:50:00,Exports (YoY),Japan,2,1.800,12.200,1.900
03/18/2018 23:50:00,Adjusted Merchandise Trade Balance,Japan,2,-201.500,373.300,
03/19/2018 00:00:00,G20 Meeting,European Monetary Union,2,,,
03/19/2018 11:45:00,Brexit press conference,United Kingdom,3,,,
03/19/2018 13:40:00,FOMC Member Bostic speech,United States,2,,,
03/19/2018 18:00:00,ECB's Mersch speech,European Monetary Union,2,,,
03/19/2018 21:00:00,Westpac consumer survey,New Zealand,2,111.200,107.400,
03/20/2018 00:00:00,G20 Meeting,European Monetary Union,2,,,
03/20/2018 00:30:00,House Price Index (QoQ),Australia,2,1.000,-0.200,0.000
03/20/2018 00:30:00,RBA Meeting's Minutes,Australia,3,,,
03/20/2018 04:15:00,RBA Assistant Governor Bullock Speech,Australia,2,,,
03/20/2018 05:00:00,Leading Economic Index,Japan,2,105.600,104.800,106.200
03/20/2018 09:30:00,Retail Price Index (MoM),United Kingdom,2,0.800,-0.800,0.800
03/20/2018 09:30:00,Retail Price Index (YoY),United Kingdom,2,3.600,4.000,3.700
03/20/2018 09:30:00,Producer Price Index - Input (YoY) n.s.a,United Kingdom,2,3.400,4.700,3.800
03/20/2018 09:30:00,Producer Price Index - Input (MoM) n.s.a,United Kingdom,2,-1.100,0.700,-0.900
03/20/2018 09:30:00,Consumer Price Index (MoM),United Kingdom,2,0.400,-0.500,0.500
03/20/2018 09:30:00,Consumer Price Index (YoY),United Kingdom,3,2.700,3.000,2.800
03/20/2018 09:30:00,Core Consumer Price Index (YoY),United Kingdom,3,2.400,2.700,2.500
03/20/2018 10:00:00,ZEW Survey - Economic Sentiment,Germany,2,5.100,17.800,13.000
03/20/2018 10:00:00,ZEW Survey - Current Situation,Germany,2,90.700,92.300,90.000
03/20/2018 14:28:05,GDT Price Index,New Zealand,2,-1.200,-0.600,
03/21/2018 08:00:00,Non-monetary policy's ECB meeting,European Monetary Union,2,,,
03/21/2018 09:30:00,ILO Unemployment Rate (3M),United Kingdom,2,4.300,4.400,4.400
03/21/2018 09:30:00,Claimant Count Change,United Kingdom,2,9.200,-7.200,-5.000
03/21/2018 09:30:00,Average Earnings including Bonus (3Mo/Yr),United Kingdom,3,2.800,2.500,2.600
03/21/2018 09:30:00,Average Earnings excluding Bonus (3Mo/Yr),United Kingdom,3,2.600,2.500,2.600
03/21/2018 09:30:00,Public Sector Net Borrowing,United Kingdom,2,-0.272,-11.620,0.000
03/21/2018 10:39:52,10-y Bond Auction,Germany,2,0.600,0.670,
03/21/2018 14:00:00,SNB Quarterly Bulletin,Switzerland,2,,,
03/21/2018 14:00:00,Existing Home Sales (MoM),United States,2,5.540,5.380,5.400
03/21/2018 18:00:00,FOMC Economic Projections,United States,3,,,
03/21/2018 18:00:00,Fed's Powell Speech,United States,3,,,
03/21/2018 18:00:00,Fed's Monetary Policy Statement,United States,3,,,
03/21/2018 18:00:00,Fed Interest Rate Decision,United States,3,1.750,1.500,1.750
03/21/2018 18:30:00,FOMC Press conference,United States,3,,,
03/21/2018 20:00:00,RBNZ Interest Rate Decision,New Zealand,3,1.750,1.750,1.750
03/21/2018 20:00:00,RBNZ Rate Statement,New Zealand,3,,,
03/22/2018 00:30:00,Employment Change s.a.,Australia,3,17.500,16.000,20.000
03/22/2018 00:30:00,Participation Rate,Australia,2,65.700,65.600,65.600
03/22/2018 00:30:00,Unemployment Rate s.a.,Australia,3,5.600,5.500,5.500
03/22/2018 04:30:00,All Industry Activity Index (MoM),Japan,2,-1.800,0.500,-1.700
03/22/2018 08:30:00,Markit PMI Composite,Germany,2,55.400,57.600,57.000
03/22/2018 08:30:00,Markit Services PMI,Germany,2,54.200,55.300,55.000
03/22/2018 08:30:00,Markit Manufacturing PMI,Germany,2,58.400,60.600,59.800
03/22/2018 08:30:00,ECB's Lautenschläger Speech,European Monetary Union,2,,,
03/22/2018 09:00:00,IFO - Expectations,Germany,2,104.400,105.400,104.400
03/22/2018 09:00:00,IFO - Current Assessment,Germany,2,125.900,126.300,125.700
03/22/2018 09:00:00,IFO - Business Climate,Germany,2,114.700,115.400,114.800
03/22/2018 09:00:00,Economic Bulletin,European Monetary Union,2,,,
03/22/2018 09:00:00,Markit Manufacturing PMI,European Monetary Union,2,56.600,58.600,58.100
03/22/2018 09:00:00,Markit Services PMI,European Monetary Union,2,55.000,56.200,56.000
03/22/2018 09:00:00,Markit PMI Composite,European Monetary Union,2,55.300,57.100,56.700
03/22/2018 09:30:00,Retail Sales (YoY),United Kingdom,2,1.500,1.600,1.300
03/22/2018 09:30:00,Retail Sales (MoM),United Kingdom,2,0.800,0.100,0.400
03/22/2018 09:30:00,Retail Sales ex-Fuel (YoY),United Kingdom,2,1.100,1.500,1.200
03/22/2018 09:30:00,Retail Sales ex-Fuel (MoM),United Kingdom,2,0.600,0.100,0.400
03/22/2018 12:00:00,BoE Asset Purchase Facility,United Kingdom,3,435.000,435.000,435.000
03/22/2018 12:00:00,BoE Interest Rate Decision,United Kingdom,3,0.500,0.500,0.500
03/22/2018 12:00:00,Monetary Policy Summary,United Kingdom,3,,,
03/22/2018 12:00:00,BOE MPC Vote Cut,United Kingdom,3,0.000,0.000,0.000
03/22/2018 12:00:00,BOE MPC Vote Unchanged,United Kingdom,3,7.000,9.000,9.000
03/22/2018 12:00:00,Bank of England Minutes,United Kingdom,3,,,
03/22/2018 12:00:00,BOE MPC Vote Hike,United Kingdom,3,2.000,0.000,0.000
03/22/2018 12:30:00,Continuing Jobless Claims,United States,2,1.828,1.879,1.890
03/22/2018 12:30:00,Initial Jobless Claims,United States,2,229.000,226.000,225.000
03/22/2018 13:00:00,Housing Price Index (MoM),United States,2,0.800,0.300,0.400
03/22/2018 13:45:00,Markit PMI Composite,United States,2,54.300,55.800,55.700
03/22/2018 13:45:00,Markit Services PMI,United States,2,54.100,55.900,55.800
03/22/2018 17:00:00,BOE Ramsden Speech,United Kingdom,2,,,
03/22/2018 18:45:00,BoC Wilkins Speech,Canada,2,,,
03/22/2018 23:30:00,National Consumer Price Index (YoY),Japan,2,1.500,1.400,1.700
03/22/2018 23:30:00,National CPI Ex-Fresh Food (YoY),Japan,2,1.000,0.900,1.000
03/23/2018 00:00:00,European Council meeting,European Monetary Union,2,,,
03/23/2018 12:10:00,FOMC Member Bostic speech,United States,2,,,
03/23/2018 12:30:00,MPC Member Vlieghe speech,United Kingdom,2,,,
03/23/2018 12:30:00,Retail Sales (MoM),Canada,3,0.300,-0.800,1.100
03/23/2018 12:30:00,Retail Sales ex Autos (MoM),Canada,2,0.900,-1.800,0.900
03/23/2018 12:30:00,Durable Goods Orders,United States,2,3.100,-3.700,1.500
03/23/2018 12:30:00,Durable Goods Orders ex Transportation,United States,2,1.200,-0.300,0.500
03/23/2018 12:30:00,Consumer Price Index - Core (MoM),Canada,2,0.200,0.200,0.500
03/23/2018 12:30:00,Consumer Price Index (YoY),Canada,2,2.200,1.700,2.000
03/23/2018 12:30:00,Bank of Canada Consumer Price Index Core (YoY),Canada,3,1.500,1.200,1.400
03/23/2018 12:30:00,Bank of Canada Consumer Price Index Core (MoM),Canada,2,0.700,0.500,0.500
03/23/2018 12:30:00,Consumer Price Index (MoM),Canada,2,0.600,0.700,0.500
03/23/2018 14:00:00,New Home Sales (MoM),United States,2,0.618,0.593,0.623
03/23/2018 14:30:00,FOMC Member Kashkari Speech,United States,2,,,
03/23/2018 17:00:00,Baker Hughes US Oil Rig Count,United States,2,804.000,800.000,
03/23/2018 23:00:00,Federal Reserve Bank of Boston President Rosengren Speech,United States,2,,,
03/25/2018 21:45:00,Trade Balance (MoM),New Zealand,2,217.000,-566.000,
03/25/2018 21:45:00,Imports,New Zealand,2,4.240,4.870,
03/25/2018 21:45:00,Exports,New Zealand,2,4.460,4.310,
03/25/2018 21:45:00,Trade Balance (YoY),New Zealand,2,-3.020,-3.220,
03/26/2018 09:30:00,German Buba President Weidmann speech,Germany,2,,,
03/26/2018 12:30:00,"Chicago Fed National Activity Index ",United States,2,0.880,0.120,0.190
03/26/2018 16:30:00,Fed's William Dudley speech,United States,2,,,
03/26/2018 20:30:00,FOMC Member Mester speech,United States,2,,,
03/26/2018 23:10:00,Fed's Quarles speech,United States,2,,,
03/27/2018 00:45:00,RBA Assistant Governor Kent Speech,Australia,2,,,
03/27/2018 05:03:20,HIA New Home Sales (MoM),Australia,2,-0.700,-2.100,
03/27/2018 09:00:00,Business Climate,European Monetary Union,2,1.340,1.480,1.390
03/27/2018 13:00:00,S&P/Case-Shiller Home Price Indices (YoY),United States,2,6.400,6.300,6.200
03/27/2018 15:00:00,FOMC Member Bostic speech,United States,2,,,
03/28/2018 06:00:00,Gfk Consumer Confidence Survey,Germany,2,10.900,10.800,10.700
03/28/2018 08:00:00,ZEW Survey - Expectations,Switzerland,2,16.700,25.800,
03/28/2018 12:30:00,Gross Domestic Product Price Index,United States,2,2.300,2.300,2.300
03/28/2018 12:30:00,Gross Domestic Product Annualized,United States,3,2.900,2.500,2.700
03/28/2018 12:30:00,Personal Consumption Expenditures Prices (QoQ),United States,2,2.700,2.700,2.700
03/28/2018 12:30:00,Core Personal Consumption Expenditures (QoQ),United States,3,1.900,1.900,1.900
03/28/2018 14:00:00,Pending Home Sales (MoM),United States,2,3.100,-4.700,2.100
03/28/2018 16:00:00,FOMC Member Bostic speech,United States,2,,,
03/28/2018 21:45:00,Building Permits s.a. (MoM),New Zealand,2,5.700,0.200,
03/28/2018 23:01:00,Gfk Consumer Confidence,United Kingdom,2,-7.000,-10.000,-10.000
03/28/2018 23:50:00,Large Retailers' Sales,Japan,2,0.600,0.500,-0.500
03/28/2018 23:50:00,Retail Trade s.a (MoM),Japan,2,0.400,-1.800,
03/28/2018 23:50:00,Retail Trade (YoY),Japan,2,1.600,1.600,1.700
03/29/2018 07:00:00,KOF Leading Indicator,Switzerland,2,106.000,108.000,107.300
03/29/2018 08:00:00,Unemployment Rate s.a.,Germany,2,5.300,5.400,5.300
03/29/2018 08:00:00,Unemployment Change,Germany,2,-19.000,-22.000,-15.000
03/29/2018 08:30:00,Gross Domestic Product (YoY),United Kingdom,2,1.400,1.400,1.400
03/29/2018 08:30:00,Gross Domestic Product (QoQ),United Kingdom,2,0.400,0.400,0.400
03/29/2018 08:30:00,Mortgage Approvals,United Kingdom,2,63.910,67.478,66.000
03/29/2018 12:00:00,Harmonized Index of Consumer Prices (YoY),Germany,3,1.500,1.200,1.600
03/29/2018 12:30:00,Personal Consumption Expenditures - Price Index (MoM),United States,2,0.200,0.400,0.000
03/29/2018 12:30:00,Personal Consumption Expenditures - Price Index (YoY),United States,2,1.800,1.700,1.700
03/29/2018 12:30:00,Personal Income (MoM),United States,2,0.400,0.400,0.400
03/29/2018 12:30:00,Core Personal Consumption Expenditure - Price Index (MoM),United States,2,0.200,0.300,0.200
03/29/2018 12:30:00,Personal Spending,United States,2,0.200,0.200,0.200
03/29/2018 12:30:00,Core Personal Consumption Expenditure - Price Index (YoY),United States,3,1.600,1.500,1.600
03/29/2018 12:30:00,Continuing Jobless Claims,United States,2,1.871,1.828,1.875
03/29/2018 12:30:00,Initial Jobless Claims,United States,2,215.000,229.000,230.000
03/29/2018 12:30:00,Gross Domestic Product (MoM),Canada,2,-0.100,0.100,0.100
03/29/2018 13:45:00,Chicago Purchasing Managers' Index,United States,2,57.400,61.900,62.000
03/29/2018 17:00:00,Baker Hughes US Oil Rig Count,United States,2,798.000,804.000,
03/29/2018 17:00:00,FOMC Member Harker Speech,United States,2,,,
03/29/2018 23:30:00,"Tokyo CPI ex Food, Energy (YoY)",Japan,2,0.500,0.500,0.500
03/29/2018 23:30:00,Tokyo Consumer Price Index (YoY),Japan,2,1.000,1.400,1.800
03/29/2018 23:30:00,Tokyo CPI ex Fresh Food (YoY),Japan,3,0.800,0.900,0.900
03/29/2018 23:30:00,Unemployment Rate,Japan,2,2.500,2.400,2.600
03/29/2018 23:30:00,Jobs/applicants ratio,Japan,2,1.580,1.590,1.600
03/30/2018 06:45:00,Consumer Price Index (EU norm) (YoY),France,2,1.700,1.300,1.500
03/31/2018 01:00:00,NBS Manufacturing PMI,China,2,51.500,50.300,50.500
03/31/2018 01:00:00,Non-manufacturing PMI,China,2,54.600,54.400,
04/01/2018 23:50:00,Tankan Large All Industry Capex,Japan,2,2.300,7.400,0.600
04/01/2018 23:50:00,Tankan Large Manufacturing Index,Japan,2,24.000,25.000,25.000
04/01/2018 23:50:00,Tankan Large Manufacturing Outlook,Japan,2,20.000,19.000,22.000
04/02/2018 01:45:00,Caixin Manufacturing PMI,China,2,51.000,51.600,51.700
04/02/2018 13:30:00,Markit Manufacturing PMI,Canada,2,55.700,55.600,55.700
04/02/2018 14:00:00,ISM Prices Paid,United States,2,78.100,74.200,74.500
04/02/2018 14:00:00,ISM Manufacturing PMI,United States,2,59.300,60.800,60.000
04/02/2018 22:00:00,FOMC Member Kashkari Speech,United States,2,,,
04/02/2018 22:30:00,AiG Performance of Mfg Index,Australia,2,63.100,57.500,63.100
04/03/2018 04:30:00,RBA Rate Statement,Australia,3,,,
04/03/2018 04:30:00,RBA Interest Rate Decision,Australia,3,1.500,1.500,1.500
04/03/2018 06:00:00,Retail Sales (MoM),Germany,2,-0.700,-0.700,0.800
04/03/2018 07:15:00,Real Retail Sales (YoY),Switzerland,2,-0.200,-1.400,-0.700
04/03/2018 07:55:00,Markit Manufacturing PMI,Germany,2,58.200,58.400,58.400
04/03/2018 08:00:00,Markit Manufacturing PMI,European Monetary Union,2,56.600,56.600,56.600
04/03/2018 08:30:00,Markit Manufacturing PMI,United Kingdom,2,55.100,55.200,54.700
04/03/2018 13:30:00,FOMC Member Kashkari Speech,United States,2,,,
04/03/2018 14:37:20,GDT Price Index,New Zealand,2,-0.600,-1.200,
04/03/2018 20:30:00,FOMC Member Brainard Speech,United States,2,,,
04/04/2018 01:30:00,Retail Sales s.a. (MoM),Australia,2,0.600,0.100,0.300
04/04/2018 01:30:00,Building Permits (MoM),Australia,2,-6.200,17.100,-5.000
04/04/2018 01:45:00,Caixin China Services PMI,China,2,52.300,54.200,54.500
04/04/2018 08:00:00,Unemployment,Italy,2,10.900,11.100,11.000
04/04/2018 08:30:00,PMI Construction,United Kingdom,2,47.000,51.400,50.800
04/04/2018 09:00:00,Unemployment Rate,European Monetary Union,2,8.500,8.600,8.500
04/04/2018 09:00:00,Consumer Price Index (YoY),European Monetary Union,3,1.400,1.100,1.400
04/04/2018 09:00:00,Consumer Price Index - Core (YoY),European Monetary Union,3,1.000,1.000,1.100
04/04/2018 12:15:00,ADP Employment Change,United States,2,241.000,235.000,205.000
04/04/2018 13:45:00,Fed's Bullard speech,United States,2,,,
04/04/2018 13:45:00,Markit PMI Composite,United States,2,54.200,54.300,54.100
04/04/2018 13:45:00,Markit Services PMI,United States,2,54.000,54.100,54.300
04/04/2018 14:00:00,ISM Non-Manufacturing PMI,United States,2,58.800,59.500,59.000
04/04/2018 14:00:00,Factory Orders (MoM),United States,2,1.200,-1.400,1.700
04/04/2018 15:00:00,FOMC Member Mester speech,United States,2,,,
04/05/2018 01:30:00,Trade Balance,Australia,2,825.000,1055.000,700.000
04/05/2018 01:30:00,Imports,Australia,2,0.000,-2.000,
04/05/2018 01:30:00,Exports,Australia,2,0.000,4.000,
04/05/2018 07:15:00,Consumer Price Index (YoY),Switzerland,2,0.800,0.600,0.700
04/05/2018 07:15:00,Markit Services PMI,Spain,2,56.200,57.300,56.000
04/05/2018 07:55:00,Markit Services PMI,Germany,2,53.900,54.200,54.200
04/05/2018 07:55:00,Markit PMI Composite,Germany,2,55.100,55.400,55.400
04/05/2018 08:00:00,Markit Services PMI,European Monetary Union,2,54.900,55.000,55.000
04/05/2018 08:00:00,Markit PMI Composite,European Monetary Union,2,55.200,55.300,55.300
04/05/2018 08:30:00,Markit Services PMI,United Kingdom,2,51.700,54.500,54.000
04/05/2018 12:30:00,Trade Balance,United States,2,-57.600,-56.600,-56.800
04/05/2018 12:30:00,Continuing Jobless Claims,United States,2,1.808,1.871,1.849
04/05/2018 12:30:00,Initial Jobless Claims,United States,2,242.000,215.000,225.000
04/05/2018 12:30:00,International Merchandise Trade,Canada,2,-2.690,-1.910,-2.000
04/05/2018 17:00:00,FOMC Member Bostic speech,United States,2,,,
04/05/2018 23:30:00,Overall Household Spending (YoY),Japan,2,0.100,1.900,0.300
04/06/2018 05:00:00,Leading Economic Index,Japan,2,105.800,105.600,105.500
04/06/2018 06:00:00,Industrial Production n.s.a. w.d.a. (YoY),Germany,2,2.600,5.500,4.300
04/06/2018 07:45:00,ECB Cœuré Speech,European Monetary Union,2,,,
04/06/2018 12:30:00,Labor Force Participation Rate,United States,2,62.900,63.000,63.500
04/06/2018 12:30:00,Average Hourly Earnings (MoM),United States,2,0.300,0.100,0.200
04/06/2018 12:30:00,Unemployment Rate,United States,2,4.100,4.100,4.000
04/06/2018 12:30:00,Average Hourly Earnings (YoY),United States,3,2.700,2.600,2.700
04/06/2018 12:30:00,Nonfarm Payrolls,United States,3,103.000,313.000,193.000
04/06/2018 12:30:00,Participation rate,Canada,2,65.500,65.500,65.500
04/06/2018 12:30:00,Unemployment Rate,Canada,3,5.800,5.800,5.800
04/06/2018 12:30:00,Net Change in Employment,Canada,3,32.300,15.400,20.000
04/06/2018 14:00:00,Ivey Purchasing Managers Index,Canada,2,64.700,58.400,
04/06/2018 14:00:00,Ivey Purchasing Managers Index s.a,Canada,2,59.800,59.600,60.200
04/06/2018 15:15:00,BOE's Governor Carney speech,United Kingdom,3,,,
04/06/2018 17:00:00,Baker Hughes US Oil Rig Count,United States,2,808.000,798.000,
04/06/2018 17:30:00,Fed's Powell Speech,United States,3,,,
04/06/2018 19:00:00,Consumer Credit Change,United States,2,10.600,13.910,15.000
04/08/2018 23:30:00,AiG Performance of Construction Index,Australia,2,57.200,56.000,
04/09/2018 05:45:00,Unemployment Rate s.a (MoM),Switzerland,2,2.900,2.900,2.900
04/09/2018 06:00:00,Trade Balance s.a.,Germany,2,19.200,21.300,21.400
04/09/2018 13:00:00,ECB Vice President Vitor Constancio speech,European Monetary Union,2,,,
04/09/2018 14:30:00,Bank of Canada Business Outlook Survey,Canada,2,,,
04/09/2018 16:45:00,ECB's Praet Speech,European Monetary Union,2,,,
04/09/2018 22:00:00,NZIER Business Confidence (QoQ),New Zealand,2,-11.000,-12.000,
04/09/2018 23:01:00,BRC Like-For-Like Retail Sales (YoY),United Kingdom,2,1.400,0.600,0.700
04/10/2018 08:30:00,FOMC Member Kaplan Speech,United States,2,,,
04/10/2018 09:30:00,MPC Member Haldane Speech,United Kingdom,2,,,
04/10/2018 12:15:00,Housing Starts s.a (YoY),Canada,2,225.000,229.700,218.000
04/10/2018 12:30:00,Producer Price Index ex Food & Energy (YoY),United States,2,2.700,2.500,2.600
04/10/2018 23:50:00,Machinery Orders (YoY),Japan,2,2.400,2.900,0.000
04/10/2018 23:50:00,Machinery Orders (MoM),Japan,2,2.100,8.200,-2.500
04/11/2018 00:30:00,Westpac Consumer Confidence,Australia,2,-0.600,0.200,
04/11/2018 01:30:00,Producer Price Index (YoY),China,2,3.100,3.700,3.200
04/11/2018 01:30:00,Consumer Price Index (MoM),China,2,-1.100,1.200,-0.500
04/11/2018 01:30:00,Consumer Price Index (YoY),China,2,2.100,2.900,2.600
04/11/2018 05:00:00,RBA's Governor Philip Lowe Speech,Australia,3,,,
04/11/2018 07:00:00,Non-monetary policy's ECB meeting,European Monetary Union,2,,,
04/11/2018 08:30:00,Industrial Production (MoM),United Kingdom,2,0.100,1.300,0.400
04/11/2018 08:30:00,Manufacturing Production (MoM),United Kingdom,2,-0.200,0.100,0.200
04/11/2018 08:30:00,Manufacturing Production (YoY),United Kingdom,2,2.500,2.700,3.300
04/11/2018 11:00:00,ECB President Draghi's Speech,European Monetary Union,3,,,
04/11/2018 12:30:00,Consumer Price Index (MoM),United States,2,-0.100,0.200,0.000
04/11/2018 12:30:00,Consumer Price Index Ex Food & Energy (MoM),United States,2,0.200,0.200,0.200
04/11/2018 12:30:00,Consumer Price Index Core s.a,United States,2,256.200,255.751,256.200
04/11/2018 12:30:00,Consumer Price Index Ex Food & Energy (YoY),United States,3,2.100,1.800,2.100
04/11/2018 12:30:00,Consumer Price Index (YoY),United States,2,2.400,2.200,2.400
04/11/2018 18:00:00,Monthly Budget Statement,United States,2,-209.000,-215.000,-194.000
04/11/2018 18:00:00,FOMC Minutes,United States,3,,,
04/11/2018 23:00:00,RBNZ Assistant Governor McDermott Speech,New Zealand,2,,,
04/12/2018 00:30:00,Bank of Japan Governor Kuroda Speech,Japan,2,,,
04/12/2018 01:00:00,Consumer Inflation Expectation,Australia,2,3.600,3.700,
04/12/2018 01:30:00,Investment Lending for Homes,Australia,2,0.500,1.100,
04/12/2018 01:30:00,Home Loans,Australia,2,-0.200,-1.100,-0.600
04/12/2018 02:00:00,FDI - Foreign Direct Investment (YTD) (YoY),China,2,0.500,0.500,
04/12/2018 06:30:00,MPC Member Broadbent Speech,United Kingdom,2,,,
04/12/2018 06:45:00,Consumer Price Index (EU norm) (YoY),France,2,1.700,1.700,1.700
04/12/2018 08:30:00,BOE Credit Conditions Survey,United Kingdom,2,,,
04/12/2018 09:00:00,Industrial Production s.a. (MoM),European Monetary Union,2,-0.800,-1.000,0.100
04/12/2018 11:30:00,ECB Monetary Policy Meeting Accounts,European Monetary Union,3,,,
04/12/2018 12:15:00,ECB Cœuré Speech,European Monetary Union,2,,,
04/12/2018 12:30:00,Continuing Jobless Claims,United States,2,1.871,1.808,1.848
04/12/2018 12:30:00,Initial Jobless Claims,United States,2,233.000,242.000,230.000
04/12/2018 16:00:00,German Buba President Weidmann speech,Germany,2,,,
04/12/2018 19:00:00,BOE's Governor Carney speech,United Kingdom,3,,,
04/12/2018 21:00:00,FOMC Member Kashkari Speech,United States,2,,,
04/12/2018 22:30:00,Business NZ PMI,New Zealand,2,52.200,53.400,
04/13/2018 02:06:35,Exports (YoY) CNY,China,2,7.400,36.200,8.000
04/13/2018 02:06:47,Imports (YoY) CNY,China,2,11.700,-0.200,7.500
04/13/2018 02:11:58,Trade Balance CNY,China,2,326.100,224.900,179.000
04/13/2018 03:14:18,Imports (YoY),China,2,14.400,6.300,10.000
04/13/2018 03:14:41,Exports (YoY),China,2,-2.700,44.500,10.000
04/13/2018 03:15:17,Trade Balance USD,China,2,-4.980,33.740,27.210
04/13/2018 06:00:00,Harmonized Index of Consumer Prices (YoY),Germany,3,1.500,1.500,1.500
04/13/2018 12:00:00,Federal Reserve Bank of Boston President Rosengren Speech,United States,2,,,
04/13/2018 13:00:00,Fed's Bullard speech,United States,2,,,
04/13/2018 14:00:00,Michigan Consumer Sentiment Index,United States,2,97.800,101.400,100.500
04/13/2018 17:00:00,Baker Hughes US Oil Rig Count,United States,2,815.000,808.000,
04/16/2018 12:30:00,Retail Sales control group,United States,3,0.400,0.100,0.400
04/16/2018 12:30:00,Retail Sales (MoM),United States,2,0.600,-0.100,0.400
04/16/2018 12:30:00,Retail Sales ex Autos (MoM),United States,3,0.200,0.200,0.200
04/16/2018 16:00:00,FOMC Member Kaplan Speech,United States,2,,,
04/16/2018 16:00:00,FOMC Member Kashkari Speech,United States,2,,,
04/16/2018 17:15:00,FOMC Member Bostic speech,United States,2,,,
04/17/2018 01:30:00,RBA Meeting's Minutes,Australia,3,,,
04/17/2018 02:00:00,Retail Sales (YoY),China,2,10.100,9.700,9.900
04/17/2018 02:00:00,Industrial Production (YoY),China,2,6.000,7.200,6.200
04/17/2018 02:00:00,NBS Press Conference,China,2,,,
04/17/2018 02:00:00,Gross Domestic Product (QoQ),China,3,1.400,1.600,1.500
04/17/2018 02:00:00,Gross Domestic Product (YoY),China,3,6.800,6.800,6.700
04/17/2018 08:30:00,Average Earnings including Bonus (3Mo/Yr),United Kingdom,3,2.800,2.800,3.000
04/17/2018 08:30:00,Average Earnings excluding Bonus (3Mo/Yr),United Kingdom,3,2.800,2.600,2.800
04/17/2018 08:30:00,ILO Unemployment Rate (3M),United Kingdom,2,4.200,4.300,4.300
04/17/2018 08:30:00,Claimant Count Change,United Kingdom,2,11.600,9.200,5.000
04/17/2018 09:00:00,ZEW Survey - Economic Sentiment,Germany,2,-8.200,5.100,-1.000
04/17/2018 09:00:00,ZEW Survey - Current Situation,Germany,2,87.900,90.700,88.000
04/17/2018 12:30:00,Housing Starts (MoM),United States,2,1.319,1.236,1.262
04/17/2018 12:30:00,Building Permits (MoM),United States,2,1.354,1.298,1.323
04/17/2018 13:15:00,FOMC Member Williams speech,United States,2,,,
04/17/2018 13:15:00,Capacity Utilization,United States,2,78.000,78.100,77.900
04/17/2018 13:15:00,Industrial Production (MoM),United States,2,0.500,1.100,0.400
04/17/2018 14:00:00,Fed's Quarles speech,United States,2,,,
04/17/2018 14:30:00,GDT Price Index,New Zealand,2,2.700,-0.600,
04/17/2018 15:00:00,FOMC Member Harker Speech,United States,2,,,
04/17/2018 21:40:00,FOMC Member Bostic speech,United States,2,,,
04/17/2018 23:50:00,Imports (YoY),Japan,2,-0.600,16.500,5.400
04/17/2018 23:50:00,Merchandise Trade Balance Total,Japan,2,797.300,3.400,498.300
04/17/2018 23:50:00,Exports (YoY),Japan,2,2.100,1.800,4.700
04/17/2018 23:50:00,Adjusted Merchandise Trade Balance,Japan,2,119.200,-201.500,-98.500
04/18/2018 00:00:00,Eurogroup meeting,European Monetary Union,2,,,
04/18/2018 08:30:00,Retail Price Index (MoM),United Kingdom,2,0.100,0.800,0.300
04/18/2018 08:30:00,Retail Price Index (YoY),United Kingdom,2,3.300,3.600,3.600
04/18/2018 08:30:00,Producer Price Index - Input (YoY) n.s.a,United Kingdom,2,4.200,3.400,4.100
04/18/2018 08:30:00,Producer Price Index - Input (MoM) n.s.a,United Kingdom,2,-0.100,-1.100,0.300
04/18/2018 08:30:00,Consumer Price Index (MoM),United Kingdom,2,0.100,0.400,0.300
04/18/2018 08:30:00,Core Consumer Price Index (YoY),United Kingdom,3,2.300,2.400,2.500
04/18/2018 08:30:00,Consumer Price Index (YoY),United Kingdom,3,2.500,2.700,2.700
04/18/2018 09:00:00,Consumer Price Index (YoY),European Monetary Union,3,1.300,1.400,1.400
04/18/2018 09:00:00,Consumer Price Index - Core (MoM),European Monetary Union,2,1.400,0.400,1.400
04/18/2018 09:00:00,Consumer Price Index - Core (YoY),European Monetary Union,3,1.000,1.000,1.000
04/18/2018 09:00:00,Consumer Price Index (MoM),European Monetary Union,2,1.000,0.200,1.000
04/18/2018 09:50:13,10-y Bond Auction,Germany,2,0.510,0.600,
04/18/2018 12:30:00,Fed's William Dudley speech,United States,2,,,
04/18/2018 14:00:00,Bank of Canada Monetary Policy Report,Canada,3,,,
04/18/2018 14:00:00,BoC Rate Statement,Canada,3,,,
04/18/2018 14:00:00,BoC Interest Rate Decision,Canada,3,1.250,1.250,1.250
04/18/2018 15:15:00,BoC Press Conference,Canada,3,,,
04/18/2018 18:00:00,Fed's Beige Book,United States,2,,,
04/18/2018 19:15:00,Fed's William Dudley speech,United States,2,,,
04/18/2018 20:15:00,Fed's Quarles speech,United States,2,,,
04/18/2018 22:45:00,Consumer Price Index (QoQ),New Zealand,3,0.500,0.100,0.500
04/18/2018 22:45:00,Consumer Price Index (YoY),New Zealand,2,1.100,1.600,1.100
04/19/2018 00:00:00,EcoFin Meeting,European Monetary Union,2,,,
04/19/2018 01:30:00,National Australia Bank's Business Confidence (QoQ),Australia,2,7.000,6.000,
04/19/2018 01:30:00,Employment Change s.a.,Australia,3,4.900,17.500,21.000
04/19/2018 01:30:00,Unemployment Rate s.a.,Australia,3,5.500,5.600,5.500
04/19/2018 01:30:00,Participation Rate,Australia,2,65.500,65.700,65.700
04/19/2018 08:30:00,Retail Sales (MoM),United Kingdom,2,-1.200,0.800,-0.500
04/19/2018 08:30:00,Retail Sales (YoY),United Kingdom,2,1.100,1.500,2.000
04/19/2018 08:30:00,Retail Sales ex-Fuel (YoY),United Kingdom,2,1.100,1.100,1.400
04/19/2018 08:30:00,Retail Sales ex-Fuel (MoM),United Kingdom,2,-0.500,0.600,-0.400
04/19/2018 12:00:00,FOMC Member Brainard Speech,United States,2,,,
04/19/2018 12:30:00,Continuing Jobless Claims,United States,2,1.863,1.871,1.848
04/19/2018 12:30:00,Initial Jobless Claims,United States,2,232.000,233.000,230.000
04/19/2018 12:30:00,Philadelphia Fed Manufacturing Survey,United States,2,23.200,22.300,20.100
04/19/2018 13:30:00,Fed's Quarles speech,United States,2,,,
04/19/2018 16:30:00,MPC Member Cunliffe Speech,United Kingdom,2,,,
04/19/2018 22:45:00,FOMC Member Mester speech,United States,2,,,
04/19/2018 23:30:00,National CPI Ex-Fresh Food (YoY),Japan,2,0.900,1.000,0.900
04/19/2018 23:30:00,National Consumer Price Index (YoY),Japan,2,1.100,1.500,1.100
04/19/2018 23:30:00,"National CPI Ex Food, Energy (YoY)",Japan,2,0.500,0.500,0.500
04/20/2018 00:00:00,IMF Meeting,European Monetary Union,2,,,
04/20/2018 00:00:00,OPEC meeting,United States,2,,,
04/20/2018 09:30:00,MPC Member Saunders Speech,United Kingdom,2,,,
04/20/2018 11:30:00,German Buba President Weidmann speech,Germany,2,,,
04/20/2018 12:30:00,Retail Sales (MoM),Canada,3,0.400,0.300,0.300
04/20/2018 12:30:00,Retail Sales ex Autos (MoM),Canada,2,0.000,0.900,0.300
04/20/2018 12:30:00,Consumer Price Index (YoY),Canada,2,2.300,2.200,2.400
04/20/2018 12:30:00,Consumer Price Index - Core (MoM),Canada,2,0.000,0.200,
04/20/2018 12:30:00,Bank of Canada Consumer Price Index Core (YoY),Canada,3,1.400,1.500,1.500
04/20/2018 12:30:00,Bank of Canada Consumer Price Index Core (MoM),Canada,2,0.200,0.700,0.200
04/20/2018 12:30:00,Consumer Price Index (MoM),Canada,2,0.300,0.600,0.400
04/20/2018 15:15:00,FOMC Member Williams speech,United States,2,,,
04/20/2018 17:00:00,Baker Hughes US Oil Rig Count,United States,2,820.000,815.000,
04/21/2018 00:00:00,IMF Meeting,European Monetary Union,2,,,
04/22/2018 00:00:00,IMF Meeting,European Monetary Union,2,,,
04/23/2018 07:30:00,Markit Services PMI,Germany,2,54.100,53.900,53.700
04/23/2018 07:30:00,Markit Manufacturing PMI,Germany,2,58.100,58.200,57.500
04/23/2018 07:30:00,Markit PMI Composite,Germany,2,55.300,55.100,54.800
04/23/2018 08:00:00,Markit Services PMI,European Monetary Union,2,55.000,54.900,54.600
04/23/2018 08:00:00,Markit Manufacturing PMI,European Monetary Union,2,56.000,56.600,56.100
04/23/2018 08:00:00,Markit PMI Composite,European Monetary Union,2,55.200,55.200,54.900
04/23/2018 12:30:00,"Chicago Fed National Activity Index ",United States,2,0.100,0.880,0.270
04/23/2018 13:45:00,Markit PMI Composite,United States,2,54.800,54.200,55.300
04/23/2018 13:45:00,Markit Services PMI,United States,2,54.400,54.000,54.000
04/23/2018 14:00:00,Existing Home Sales (MoM),United States,2,5.600,5.540,5.550
04/23/2018 14:00:00,ECB Cœuré Speech,European Monetary Union,2,,,
04/23/2018 19:30:00,BoC Governor Poloz Speech,Canada,3,,,
04/23/2018 22:00:00,RBA Assistant Governor Kent Speech,Australia,2,,,
04/24/2018 01:30:00,Consumer Price Index (QoQ),Australia,3,0.400,0.600,0.500
04/24/2018 01:30:00,RBA trimmed mean CPI (YoY),Australia,2,1.900,1.800,1.800
04/24/2018 01:30:00,Consumer Price Index (YoY),Australia,2,1.900,1.900,2.000
04/24/2018 01:30:00,RBA trimmed mean CPI (QoQ),Australia,3,0.500,0.400,0.500
04/24/2018 05:00:00,Leading Economic Index,Japan,2,106.000,105.800,105.800
04/24/2018 08:00:00,IFO - Business Climate,Germany,2,102.100,114.700,102.700
04/24/2018 08:00:00,IFO - Expectations,Germany,2,98.700,104.400,99.500
04/24/2018 08:00:00,IFO - Current Assessment,Germany,2,105.700,125.900,106.000
04/24/2018 08:30:00,Public Sector Net Borrowing,United Kingdom,2,-0.262,-0.272,1.600
04/24/2018 13:00:00,S&P/Case-Shiller Home Price Indices (YoY),United States,2,6.800,6.400,6.300
04/24/2018 13:00:00,Housing Price Index (MoM),United States,2,0.600,0.800,0.500
04/24/2018 14:00:00,New Home Sales (MoM),United States,2,0.694,0.618,0.630
04/25/2018 04:30:00,All Industry Activity Index (MoM),Japan,2,0.400,-1.800,0.400
04/25/2018 08:00:00,ZEW Survey - Expectations,Switzerland,2,7.200,16.700,
04/25/2018 20:15:00,BoC Governor Poloz Speech,Canada,3,,,
04/26/2018 06:00:00,Gfk Consumer Confidence Survey,Germany,2,10.800,10.900,10.800
04/26/2018 11:45:00,ECB Deposit Rate Decision,European Monetary Union,3,-0.400,-0.400,-0.400
04/26/2018 11:45:00,ECB Interest Rate Decision,European Monetary Union,3,0.000,0.000,0.000
04/26/2018 12:30:00,Continuing Jobless Claims,United States,2,1.837,1.863,1.850
04/26/2018 12:30:00,Initial Jobless Claims,United States,2,209.000,232.000,230.000
04/26/2018 12:30:00,ECB Monetary policy statement and press conference,European Monetary Union,3,,,
04/26/2018 12:30:00,Durable Goods Orders,United States,2,2.600,3.100,1.600
04/26/2018 12:30:00,Durable Goods Orders ex Transportation,United States,2,0.000,1.200,0.500
04/26/2018 22:05:00,Gfk Consumer Confidence,United Kingdom,2,-9.000,-7.000,-7.000
04/26/2018 22:45:00,Trade Balance (MoM),New Zealand,2,-86.000,217.000,270.000
04/26/2018 22:45:00,Imports,New Zealand,2,4.940,4.240,4.850
04/26/2018 22:45:00,Trade Balance (YoY),New Zealand,2,-3.420,-3.020,-2.900
04/26/2018 22:45:00,Exports,New Zealand,2,4.850,4.460,4.980
04/26/2018 23:30:00,Tokyo Consumer Price Index (YoY),Japan,2,0.500,1.000,0.800
04/26/2018 23:30:00,"Tokyo CPI ex Food, Energy (YoY)",Japan,2,0.300,0.500,0.500
04/26/2018 23:30:00,Tokyo CPI ex Fresh Food (YoY),Japan,3,0.600,0.800,0.800
04/26/2018 23:30:00,Unemployment Rate,Japan,2,2.500,2.500,2.500
04/26/2018 23:30:00,Jobs/applicants ratio,Japan,2,1.590,1.580,1.590
04/26/2018 23:50:00,Large Retailers' Sales,Japan,2,0.100,0.600,-0.500
04/26/2018 23:50:00,Retail Trade (YoY),Japan,2,1.000,1.600,1.700
04/26/2018 23:50:00,Retail Trade s.a (MoM),Japan,2,-0.700,0.400,0.000
04/27/2018 00:00:00,Eurogroup meeting,European Monetary Union,2,,,
04/27/2018 02:00:00,"BoJ Monetary Policy Statement ",Japan,3,,,
04/27/2018 02:00:00,BoJ outlook report,Japan,2,,,
04/27/2018 03:05:14,BoJ Interest Rate Decision,Japan,3,-0.100,-0.100,-0.100
04/27/2018 05:45:00,ECB's Mersch speech,European Monetary Union,2,,,
04/27/2018 06:30:00,BoJ Press Conference,Japan,3,,,
04/27/2018 06:45:00,ECB's Lautenschläger Speech,European Monetary Union,2,,,
04/27/2018 06:45:00,Consumer Price Index (EU norm) (YoY),France,2,1.800,1.700,1.700
04/27/2018 08:00:00,ECB's Mersch speech,European Monetary Union,2,,,
04/27/2018 08:00:00,Unemployment Change,Germany,2,-7.000,-19.000,-15.000
04/27/2018 08:00:00,Unemployment Rate s.a.,Germany,2,5.300,5.300,5.300
04/27/2018 08:00:00,SNB Chairman Jordan Speech,Switzerland,2,,,
04/27/2018 08:30:00,Gross Domestic Product (YoY),United Kingdom,2,1.200,1.400,1.400
04/27/2018 08:30:00,Gross Domestic Product (QoQ),United Kingdom,3,0.100,0.400,0.300
04/27/2018 09:00:00,Business Climate,European Monetary Union,2,1.350,1.340,1.270
04/27/2018 12:30:00,Gross Domestic Product Price Index,United States,2,2.000,2.300,2.200
04/27/2018 12:30:00,Gross Domestic Product Annualized,United States,3,2.300,2.900,2.000
04/27/2018 12:30:00,Personal Consumption Expenditures Prices (QoQ),United States,2,2.700,2.700,2.600
04/27/2018 12:30:00,Core Personal Consumption Expenditures (QoQ),United States,3,2.500,1.900,2.400
04/27/2018 14:00:00,BOE's Governor Carney speech,United Kingdom,3,,,
04/27/2018 14:15:00,MPC Member Haldane Speech,United Kingdom,2,,,
04/27/2018 17:00:00,Baker Hughes US Oil Rig Count,United States,2,825.000,820.000,
04/30/2018 00:00:00,EcoFin Meeting,European Monetary Union,2,,,
04/30/2018 01:00:00,NBS Manufacturing PMI,China,2,51.400,51.500,51.300
04/30/2018 01:00:00,Non-manufacturing PMI,China,2,54.800,54.600,55.100
04/30/2018 01:15:00,HIA New Home Sales (MoM),Australia,2,-2.000,-0.700,
04/30/2018 02:00:00,RBA's Governor Philip Lowe Speech,Australia,3,,,
04/30/2018 06:00:00,Retail Sales (MoM),Germany,2,-0.600,-0.700,0.800
04/30/2018 07:00:00,KOF Leading Indicator,Switzerland,2,105.300,106.000,105.500
04/30/2018 12:00:00,Harmonized Index of Consumer Prices (YoY),Germany,3,1.400,1.500,1.500
04/30/2018 12:30:00,Personal Consumption Expenditures - Price Index (MoM),United States,2,0.000,0.200,0.100
04/30/2018 12:30:00,Personal Income (MoM),United States,2,0.300,0.400,0.400
04/30/2018 12:30:00,Core Personal Consumption Expenditure - Price Index (MoM),United States,2,0.200,0.200,0.200
04/30/2018 12:30:00,Personal Consumption Expenditures - Price Index (YoY),United States,2,2.000,1.800,2.000
04/30/2018 12:30:00,Personal Spending,United States,2,0.400,0.200,0.400
04/30/2018 12:30:00,Core Personal Consumption Expenditure - Price Index (YoY),United States,3,1.900,1.600,1.900
04/30/2018 13:45:00,Chicago Purchasing Managers' Index,United States,2,57.600,57.400,57.900
04/30/2018 14:00:00,Pending Home Sales (MoM),United States,2,0.400,3.100,0.900
04/30/2018 22:45:00,Building Permits s.a. (MoM),New Zealand,2,14.700,5.700,
04/30/2018 23:30:00,AiG Performance of Mfg Index,Australia,2,58.300,63.100,
