DateTime,Name,Country,Volatility,Actual,Previous,Consensus
03/01/2017 00:30:00,Gross Domestic Product (QoQ),Australia,2,1.100,-0.500,0.700
03/01/2017 00:30:00,Gross Domestic Product (YoY),Australia,2,2.400,1.800,1.900
03/01/2017 01:00:00,Non-manufacturing PMI,China,2,54.200,54.600,
03/01/2017 01:00:00,NBS Manufacturing PMI,China,2,51.600,51.300,51.100
03/01/2017 01:45:00,Caixin Manufacturing PMI,China,2,51.700,51.000,50.800
03/01/2017 02:00:00,Trump's speech to Congress,United States,3,,,
03/01/2017 07:00:00,UBS Consumption Indicator,Switzerland,2,1.430,1.500,
03/01/2017 08:55:00,Markit Manufacturing PMI,Germany,2,56.800,57.000,57.000
03/01/2017 09:00:00,Unemployment Change,Germany,2,-14.000,-26.000,-10.000
03/01/2017 09:00:00,Unemployment Rate s.a.,Germany,2,5.900,5.900,5.900
03/01/2017 09:00:00,Markit Manufacturing PMI,European Monetary Union,2,55.400,55.500,55.500
03/01/2017 09:30:00,Markit Manufacturing PMI,United Kingdom,2,54.600,55.900,55.600
03/01/2017 09:30:00,Consumer Credit,United Kingdom,2,1.416,1.039,1.400
03/01/2017 09:30:00,Mortgage Approvals,United Kingdom,2,69.928,67.898,68.650
03/01/2017 12:02:22,10-y Bond Auction,Germany,2,0.250,0.330,
03/01/2017 13:00:00,Harmonized Index of Consumer Prices (MoM),Germany,2,0.700,-0.800,0.600
03/01/2017 13:00:00,Consumer Price Index (MoM),Germany,2,0.600,-0.600,0.600
03/01/2017 13:00:00,Harmonized Index of Consumer Prices (YoY),Germany,2,2.200,1.900,2.100
03/01/2017 13:00:00,Consumer Price Index (YoY),Germany,2,2.200,1.900,2.100
03/01/2017 13:30:00,Personal Spending,United States,2,0.200,0.500,0.300
03/01/2017 13:30:00,Core Personal Consumption Expenditure - Price Index (YoY),United States,2,1.700,1.700,
03/01/2017 13:30:00,Personal Consumption Expenditures - Price Index (MoM),United States,2,0.400,0.200,
03/01/2017 13:30:00,Core Personal Consumption Expenditure - Price Index (MoM),United States,2,0.300,0.100,0.200
03/01/2017 13:30:00,Personal Income (MoM),United States,2,0.400,0.300,0.300
03/01/2017 13:30:00,Personal Consumption Expenditures - Price Index (YoY),United States,2,1.900,1.600,
03/01/2017 13:30:00,Current Account,Canada,2,-10.730,-18.300,-9.750
03/01/2017 14:30:00,Markit Manufacturing PMI,Canada,2,54.700,53.500,
03/01/2017 14:45:00,Markit Manufacturing PMI,United States,2,54.200,54.300,
03/01/2017 15:00:00,BoC Interest Rate Decision,Canada,3,0.500,0.500,0.500
03/01/2017 15:00:00,BoC Rate Statement,Canada,3,,,
03/01/2017 15:00:00,ISM Prices Paid,United States,2,68.000,69.000,68.000
03/01/2017 15:00:00,ISM Manufacturing PMI,United States,3,57.700,56.000,56.000
03/01/2017 15:00:00,Construction Spending (MoM),United States,2,-1.000,-0.200,0.600
03/01/2017 15:30:00,EIA Crude Oil Stocks change,United States,2,1.501,0.564,3.079
03/01/2017 18:00:00,FOMC Member Kaplan Speech,United States,2,,,
03/01/2017 19:00:00,Fed's Beige Book,United States,2,,,
03/01/2017 20:00:00,RBNZ Governor Wheeler Speech,New Zealand,2,,,
03/01/2017 23:00:00,FOMC Member Brainard Speech,United States,2,,,
03/01/2017 23:50:00,Foreign bond investment,Japan,2,-202.000,48.200,
03/01/2017 23:50:00,Foreign investment in Japan stocks,Japan,2,-261.100,-127.900,
03/02/2017 00:30:00,Trade Balance,Australia,2,1302.000,3511.000,3800.000
03/02/2017 00:30:00,Imports,Australia,2,4.000,1.000,
03/02/2017 00:30:00,Exports,Australia,2,-3.000,5.000,
03/02/2017 06:45:00,Gross Domestic Product (YoY),Switzerland,2,0.600,1.300,
03/02/2017 06:45:00,Gross Domestic Product s.a. (QoQ),Switzerland,2,0.100,0.000,0.400
03/02/2017 08:15:00,Real Retail Sales (YoY),Switzerland,2,-1.400,-3.500,-2.000
03/02/2017 09:00:00,Unemployment,Italy,2,11.900,12.000,12.000
03/02/2017 09:30:00,PMI Construction,United Kingdom,2,52.500,52.200,52.200
03/02/2017 10:00:00,Unemployment Rate,European Monetary Union,2,9.600,9.600,9.600
03/02/2017 10:00:00,Consumer Price Index (YoY),European Monetary Union,2,2.000,1.800,2.000
03/02/2017 10:00:00,Consumer Price Index - Core (YoY),European Monetary Union,2,0.900,0.900,0.900
03/02/2017 10:00:00,Producer Price Index (YoY),European Monetary Union,2,3.500,1.600,3.200
03/02/2017 13:30:00,Gross Domestic Product Annualized (QoQ),Canada,2,2.600,3.500,2.000
03/02/2017 13:30:00,Initial Jobless Claims,United States,2,223.000,244.000,243.000
03/02/2017 13:30:00,Gross Domestic Product (MoM),Canada,2,0.300,0.400,0.300
03/02/2017 18:00:00,BoC Gov Council Member Lane Speech,Canada,2,,,
03/02/2017 23:30:00,National CPI Ex-Fresh Food (YoY),Japan,2,0.100,-0.200,0.000
03/02/2017 23:30:00,National Consumer Price Index (YoY),Japan,2,0.400,0.300,
03/02/2017 23:30:00,"National CPI Ex Food, Energy (YoY)",Japan,2,0.200,0.000,
03/02/2017 23:30:00,Unemployment Rate,Japan,2,3.000,3.100,3.000
03/02/2017 23:30:00,Jobs/applicants ratio,Japan,2,1.430,1.430,1.440
03/02/2017 23:30:00,Overall Household Spending (YoY),Japan,2,-1.200,-0.300,-0.400
03/03/2017 00:30:00,RBNZ Assistant Governor McDermott Speech,New Zealand,2,,,
03/03/2017 01:45:00,Caixin China Services PMI,China,2,52.600,53.100,
03/03/2017 09:00:00,Markit PMI Composite,European Monetary Union,2,56.000,56.000,56.000
03/03/2017 09:00:00,Markit Services PMI,European Monetary Union,2,55.500,55.600,55.600
03/03/2017 14:45:00,Markit PMI Composite,United States,2,54.100,54.300,
03/03/2017 14:45:00,Markit Services PMI,United States,2,53.800,53.900,53.900
03/03/2017 15:00:00,ISM Non-Manufacturing PMI,United States,2,57.600,56.500,56.500
03/03/2017 18:00:00,Baker Hughes US Oil Rig Count,United States,2,609.000,602.000,
03/03/2017 18:00:00,Fed's Stanley Fischer speech,United States,2,,,
03/03/2017 18:00:00,Fed's Yellen Speech,United States,3,,,
03/05/2017 21:45:00,Building Permits s.a. (MoM),New Zealand,2,0.800,-7.200,
03/06/2017 00:00:00,TD Securities Inflation (YoY),Australia,2,2.100,2.100,
03/06/2017 00:00:00,TD Securities Inflation (MoM),Australia,2,-0.300,0.600,
03/06/2017 00:30:00,Retail Sales s.a. (MoM),Australia,2,0.400,-0.100,
03/06/2017 11:30:00,MPC Member Hogg speech,United Kingdom,2,,,
03/06/2017 15:00:00,Factory Orders (MoM),United States,2,1.200,1.300,1.200
03/06/2017 22:30:00,AiG Performance of Construction Index,Australia,2,53.100,47.700,
03/07/2017 00:01:00,BRC Like-For-Like Retail Sales (YoY),United Kingdom,2,-0.400,-0.600,0.200
03/07/2017 03:30:00,RBA Rate Statement,Australia,3,,,
03/07/2017 03:30:00,RBA Interest Rate Decision,Australia,3,1.500,1.500,1.500
03/07/2017 10:00:00,Gross Domestic Product s.a. (YoY),European Monetary Union,2,1.700,1.700,1.700
03/07/2017 10:00:00,Gross Domestic Product s.a. (QoQ),European Monetary Union,2,0.400,0.400,0.400
03/07/2017 13:30:00,Trade Balance,United States,2,-48.500,-44.300,-48.500
03/07/2017 15:00:00,Ivey Purchasing Managers Index s.a,Canada,2,55.000,57.200,58.900
03/07/2017 15:00:00,Ivey Purchasing Managers Index,Canada,2,55.100,52.300,
03/07/2017 20:00:00,Consumer Credit Change,United States,2,8.790,14.160,17.100
03/07/2017 23:50:00,Gross Domestic Product Deflator (YoY),Japan,2,-0.100,-0.100,
03/07/2017 23:50:00,Gross Domestic Product Annualized,Japan,2,1.200,1.000,1.600
03/07/2017 23:50:00,Gross Domestic Product (QoQ),Japan,2,0.300,0.200,0.400
03/08/2017 05:00:00,Leading Economic Index,Japan,2,105.500,104.800,
03/08/2017 05:00:00,Coincident Index,Japan,2,114.900,114.800,
03/08/2017 06:00:00,Eco Watchers Survey: Outlook,Japan,2,50.600,49.400,
03/08/2017 06:00:00,Eco Watchers Survey: Current,Japan,2,48.600,49.800,
03/08/2017 08:15:00,Consumer Price Index (MoM),Switzerland,2,0.500,0.000,
03/08/2017 08:15:00,Consumer Price Index (YoY),Switzerland,2,0.600,0.300,
03/08/2017 12:30:00,Budget Report,United Kingdom,2,,,
03/08/2017 13:15:00,Housing Starts s.a (YoY),Canada,2,210.200,207.400,
03/08/2017 13:15:00,ADP Employment Change,United States,2,298.000,246.000,190.000
03/08/2017 13:30:00,Unit Labor Costs,United States,2,1.700,1.700,1.600
03/08/2017 13:30:00,Nonfarm Productivity,United States,2,1.300,1.300,1.500
03/08/2017 18:00:00,10-Year Note Auction,United States,2,2.560,2.333,
03/08/2017 23:50:00,Foreign investment in Japan stocks,Japan,2,-167.100,-261.100,
03/08/2017 23:50:00,Foreign bond investment,Japan,2,-1130.600,-202.000,
03/09/2017 00:01:00,RICS Housing Price Balance,United Kingdom,2,24.000,25.000,23.000
03/09/2017 01:30:00,Consumer Price Index (YoY),China,2,0.800,2.500,1.700
03/09/2017 01:30:00,Producer Price Index (YoY),China,2,7.800,6.900,7.700
03/09/2017 01:30:00,Consumer Price Index (MoM),China,2,-0.200,1.000,0.600
03/09/2017 06:45:00,Unemployment Rate s.a (MoM),Switzerland,3,3.300,3.300,3.300
03/09/2017 08:00:00,EcoFin Meeting,European Monetary Union,2,,,
03/09/2017 12:45:00,ECB Deposit Rate Decision,European Monetary Union,3,-0.400,-0.400,-0.400
03/09/2017 12:45:00,ECB Interest Rate Decision,European Monetary Union,3,0.000,0.000,0.000
03/09/2017 13:30:00,Initial Jobless Claims,United States,2,243.000,223.000,235.000
03/09/2017 13:30:00,ECB Monetary policy statement and press conference,European Monetary Union,3,,,
03/09/2017 13:30:00,New Housing Price Index (MoM),Canada,2,0.100,0.100,
03/09/2017 13:30:00,New Housing Price Index (YoY),Canada,2,3.100,3.000,
03/09/2017 21:45:00,Electronic Card Retail Sales (YoY),New Zealand,2,2.600,5.600,
03/09/2017 21:45:00,Electronic Card Retail Sales  (MoM),New Zealand,2,-0.600,2.700,
03/10/2017 00:30:00,Investment Lending for Homes,Australia,2,4.200,-1.000,
03/10/2017 00:30:00,Home Loans,Australia,2,0.500,0.400,-1.000
03/10/2017 07:00:00,Wholesale Price Index (MoM),Germany,2,0.500,0.800,
03/10/2017 07:00:00,Wholesale Price Index (YoY),Germany,2,5.000,4.000,
03/10/2017 07:00:00,Imports (MoM),Germany,2,3.000,0.000,0.500
03/10/2017 07:00:00,Current Account n.s.a.,Germany,2,12.800,24.000,
03/10/2017 07:00:00,Exports (MoM),Germany,2,2.700,-3.300,1.850
03/10/2017 07:00:00,Trade Balance s.a.,Germany,2,18.500,18.400,18.000
03/10/2017 09:30:00,Consumer Inflation Expectations,United Kingdom,3,2.900,2.800,
03/10/2017 09:30:00,Manufacturing Production (YoY),United Kingdom,2,2.700,1.200,3.000
03/10/2017 09:30:00,Industrial Production (MoM),United Kingdom,2,-0.400,2.100,-0.400
03/10/2017 09:30:00,Manufacturing Production (MoM),United Kingdom,2,-0.900,1.300,-0.600
03/10/2017 09:30:00,Industrial Production (YoY),United Kingdom,2,3.200,2.000,3.300
03/10/2017 12:00:00,EcoFin Meeting,European Monetary Union,2,,,
03/10/2017 13:30:00,Unemployment Rate,United States,3,4.700,4.800,4.700
03/10/2017 13:30:00,Average Weekly Hours,United States,2,34.400,34.400,34.400
03/10/2017 13:30:00,Labor Force Participation Rate,United States,2,63.000,62.900,
03/10/2017 13:30:00,Nonfarm Payrolls,United States,3,235.000,227.000,190.000
03/10/2017 13:30:00,Average Hourly Earnings (YoY),United States,2,2.800,2.500,
03/10/2017 13:30:00,Net Change in Employment,Canada,3,15.300,48.300,2.500
03/10/2017 13:30:00,Participation rate,Canada,2,65.800,65.900,
03/10/2017 13:30:00,Unemployment Rate,Canada,3,6.600,6.800,6.800
03/10/2017 15:00:00,NIESR GDP Estimate (3M),United Kingdom,2,0.600,0.700,
03/10/2017 19:00:00,Monthly Budget Statement,United States,2,-192.000,51.000,
03/13/2017 04:30:00,Tertiary Industry Index (MoM),Japan,2,0.000,-0.400,
03/13/2017 13:30:00,ECB President Draghi's Speech,European Monetary Union,3,,,
03/14/2017 02:00:00,Retail Sales (YoY),China,2,9.500,10.900,10.500
03/14/2017 02:00:00,Industrial Production (YoY),China,2,6.300,6.000,6.200
03/14/2017 07:00:00,Harmonized Index of Consumer Prices (MoM),Germany,2,0.700,0.700,0.700
03/14/2017 07:00:00,Harmonized Index of Consumer Prices (YoY),Germany,2,2.200,2.200,2.200
03/14/2017 07:00:00,Consumer Price Index (MoM),Germany,2,0.600,0.600,0.600
03/14/2017 07:00:00,Consumer Price Index (YoY),Germany,2,2.200,2.200,2.200
03/14/2017 10:00:00,Industrial Production s.a. (MoM),European Monetary Union,2,0.900,-1.600,2.000
03/14/2017 10:00:00,Industrial Production w.d.a. (YoY),European Monetary Union,2,0.600,2.000,0.900
03/14/2017 23:30:00,Westpac Consumer Confidence,Australia,2,0.100,2.300,
03/15/2017 04:30:00,Industrial Production (MoM),Japan,2,-0.400,-0.800,-0.800
03/15/2017 04:30:00,Industrial Production (YoY),Japan,2,3.700,3.200,
03/15/2017 07:45:00,Consumer Price Index (EU norm) (MoM),France,2,0.200,-0.300,0.100
03/15/2017 07:45:00,Inflation ex-tobacco (MoM),France,2,0.100,-0.200,
03/15/2017 07:45:00,Consumer Price Index (EU norm) (YoY),France,2,1.400,1.400,
03/15/2017 09:30:00,Average Earnings including Bonus (3Mo/Yr),United Kingdom,2,2.200,2.600,2.400
03/15/2017 09:30:00,Average Earnings excluding Bonus (3Mo/Yr),United Kingdom,2,2.300,2.600,2.500
03/15/2017 09:30:00,ILO Unemployment Rate (3M),United Kingdom,2,4.700,4.800,4.800
03/15/2017 09:30:00,Claimant Count Change,United Kingdom,2,-11.300,-42.400,-5.000
03/15/2017 12:30:00,Retail Sales (MoM),United States,3,0.100,0.400,0.100
03/15/2017 12:30:00,Retail Sales control group,United States,2,0.100,0.400,0.200
03/15/2017 12:30:00,Retail Sales ex Autos (MoM),United States,2,0.200,0.800,0.200
03/15/2017 12:30:00,Consumer Price Index Ex Food & Energy (YoY),United States,3,2.200,2.300,2.200
03/15/2017 12:30:00,Consumer Price Index (YoY),United States,3,2.700,2.500,2.700
03/15/2017 12:30:00,Consumer Price Index Ex Food & Energy (MoM),United States,2,0.200,0.300,0.200
03/15/2017 12:30:00,Consumer Price Index (MoM),United States,2,0.100,0.600,0.000
03/15/2017 14:00:00,NAHB Housing Market Index,United States,2,71.000,65.000,65.000
03/15/2017 18:00:00,FOMC Economic Projections,United States,3,,,
03/15/2017 18:00:00,Fed's Monetary Policy Statement,United States,3,,,
03/15/2017 18:00:00,Fed Interest Rate Decision,United States,3,1.000,0.750,1.000
03/15/2017 18:20:00,President Trump Speech,United States,2,,,
03/15/2017 18:30:00,FOMC Press conference,United States,3,,,
03/15/2017 21:45:00,Gross Domestic Product (QoQ),New Zealand,2,0.400,1.100,0.700
03/15/2017 21:45:00,Gross Domestic Product (YoY),New Zealand,2,2.700,3.500,3.100
03/15/2017 23:50:00,Foreign bond investment,Japan,2,-703.900,-1130.600,
03/15/2017 23:50:00,Foreign investment in Japan stocks,Japan,2,-722.700,-167.100,
03/16/2017 00:00:00,Consumer Inflation Expectation,Australia,2,4.000,4.100,
03/16/2017 00:30:00,Participation Rate,Australia,2,64.600,64.600,64.600
03/16/2017 00:30:00,Unemployment Rate s.a.,Australia,3,5.900,5.700,5.700
03/16/2017 00:30:00,Employment Change s.a.,Australia,3,-6.400,13.500,16.000
03/16/2017 00:30:00,RBA Bulletin,Australia,2,,,
03/16/2017 02:55:00,BoJ Interest Rate Decision,Japan,3,-0.100,-0.100,-0.100
03/16/2017 02:55:00,"BoJ Monetary Policy Statement ",Japan,3,,,
03/16/2017 05:30:00,BoJ Press Conference,Japan,3,,,
03/16/2017 08:30:00,SNB Interest Rate Decision,Switzerland,3,-0.750,-0.750,-0.750
03/16/2017 10:00:00,Consumer Price Index (YoY),European Monetary Union,2,2.000,2.000,2.000
03/16/2017 10:00:00,Consumer Price Index - Core (MoM),European Monetary Union,2,0.400,-1.700,
03/16/2017 10:00:00,Consumer Price Index - Core (YoY),European Monetary Union,2,0.900,0.900,0.900
03/16/2017 10:00:00,Consumer Price Index (MoM),European Monetary Union,2,0.400,-0.800,0.400
03/16/2017 11:00:00,FDI - Foreign Direct Investment (YTD) (YoY),China,2,-2.300,-9.200,
03/16/2017 12:00:00,BoE Interest Rate Decision,United Kingdom,3,0.250,0.250,0.250
03/16/2017 12:00:00,BoE Asset Purchase Facility,United Kingdom,3,435.000,435.000,435.000
03/16/2017 12:00:00,Monetary Policy Summary,United Kingdom,3,,,
03/16/2017 12:00:00,BOE MPC Vote Hike,United Kingdom,3,1.000,0.000,0.000
03/16/2017 12:00:00,Bank of England Minutes,United Kingdom,3,,,
03/16/2017 12:00:00,BOE MPC Vote Cut,United Kingdom,3,0.000,0.000,0.000
03/16/2017 12:00:00,BOE MPC Vote Unchanged,United Kingdom,3,8.000,9.000,9.000
03/16/2017 12:30:00,Housing Starts (MoM),United States,2,1.288,1.246,1.260
03/16/2017 12:30:00,Initial Jobless Claims,United States,2,241.000,243.000,240.000
03/16/2017 12:30:00,Philadelphia Fed Manufacturing Survey,United States,2,32.800,43.300,30.000
03/16/2017 21:30:00,Business NZ PMI,New Zealand,2,55.200,51.600,
03/17/2017 10:00:00,Trade Balance s.a.,European Monetary Union,2,15.700,24.500,22.300
03/17/2017 10:00:00,Trade Balance n.s.a.,European Monetary Union,2,-0.600,28.100,
03/17/2017 12:00:00,G20 Meeting,European Monetary Union,2,,,
03/17/2017 13:15:00,Capacity Utilization,United States,2,75.400,75.300,75.500
03/17/2017 13:15:00,Industrial Production (MoM),United States,2,0.000,-0.300,0.200
03/17/2017 15:00:00,Labor Market Conditions Index,United States,2,1.300,1.300,
03/17/2017 16:30:00,Trump-Merkel meeting,United States,3,,,
03/18/2017 12:00:00,G20 Meeting,European Monetary Union,2,,,
03/19/2017 21:00:00,Westpac consumer survey,New Zealand,2,111.900,113.100,
03/20/2017 07:00:00,Producer Price Index (YoY),Germany,2,3.100,2.400,2.900
03/20/2017 07:00:00,Producer Price Index (MoM),Germany,2,0.200,0.700,0.200
03/20/2017 09:00:00,Eurogroup meeting,European Monetary Union,2,,,
03/20/2017 10:00:00,Labour cost,European Monetary Union,2,1.600,1.500,
03/20/2017 12:30:00,"Chicago Fed National Activity Index ",United States,2,0.340,-0.050,
03/20/2017 13:00:00,German Buba President Weidmann speech,Germany,2,,,
03/20/2017 16:45:00,German Buba President Weidmann speech,Germany,2,,,
03/20/2017 23:30:00,President Trump Speech,United States,2,,,
03/21/2017 00:30:00,House Price Index (YoY),Australia,2,7.700,3.500,
03/21/2017 00:30:00,House Price Index (QoQ),Australia,2,4.100,1.500,2.400
03/21/2017 00:30:00,RBA Meeting's Minutes,Australia,3,,,
03/21/2017 06:45:00,SECO Economic Forecasts,Switzerland,2,,,
03/21/2017 09:30:00,Producer Price Index - Output (YoY) n.s.a,United Kingdom,2,3.700,3.500,3.700
03/21/2017 09:30:00,PPI Core Output (MoM) n.s.a,United Kingdom,2,0.000,0.500,0.200
03/21/2017 09:30:00,Producer Price Index - Output (MoM) n.s.a,United Kingdom,2,0.200,0.600,0.300
03/21/2017 09:30:00,Producer Price Index - Input (MoM) n.s.a,United Kingdom,2,-0.400,1.700,0.000
03/21/2017 09:30:00,Producer Price Index - Input (YoY) n.s.a,United Kingdom,2,19.100,20.500,20.000
03/21/2017 09:30:00,"PPI Core Output (YoY) n.s.a ",United Kingdom,2,2.400,2.400,2.500
03/21/2017 09:30:00,Consumer Price Index (YoY),United Kingdom,3,2.300,1.800,2.100
03/21/2017 09:30:00,Core Consumer Price Index (YoY),United Kingdom,2,2.000,1.600,1.800
03/21/2017 09:30:00,Consumer Price Index (MoM),United Kingdom,2,0.700,-0.500,0.500
03/21/2017 09:30:00,Public Sector Net Borrowing,United Kingdom,2,1.100,-9.824,2.500
03/21/2017 10:35:00,BOE's Governor Carney speech,United Kingdom,3,,,
03/21/2017 12:00:00,EcoFin Meeting,European Monetary Union,2,,,
03/21/2017 23:50:00,BoJ Monetary Policy Meeting Minutes,Japan,3,,,
03/22/2017 01:40:00,RBA Assist Gov Debelle Speech,Australia,2,,,
03/22/2017 04:30:00,All Industry Activity Index (MoM),Japan,2,0.100,-0.300,0.100
03/22/2017 08:00:00,Non-monetary policy's ECB meeting,European Monetary Union,3,,,
03/22/2017 10:51:35,10-y Bond Auction,Germany,2,0.410,0.250,
03/22/2017 13:00:00,Housing Price Index (MoM),United States,2,0.000,0.400,0.400
03/22/2017 14:00:00,SNB Quarterly Bulletin,Switzerland,2,,,
03/22/2017 20:00:00,RBNZ Interest Rate Decision,New Zealand,3,1.750,1.750,1.750
03/22/2017 20:00:00,RBNZ Rate Statement,New Zealand,3,,,
03/23/2017 07:00:00,Gfk Consumer Confidence Survey,Germany,2,9.800,10.000,10.000
03/23/2017 09:00:00,Economic Bulletin,European Monetary Union,2,,,
03/23/2017 09:30:00,Retail Sales (YoY),United Kingdom,2,3.700,1.500,2.600
03/23/2017 09:30:00,Retail Sales (MoM),United Kingdom,2,1.400,-0.300,0.400
03/23/2017 09:30:00,Retail Sales ex-Fuel (YoY),United Kingdom,2,4.100,2.600,3.100
03/23/2017 09:30:00,Retail Sales ex-Fuel (MoM),United Kingdom,2,1.300,-0.200,0.400
03/23/2017 12:30:00,Initial Jobless Claims,United States,2,258.000,241.000,240.000
03/23/2017 12:45:00,Fed's Yellen Speech,United States,3,,,
03/23/2017 14:00:00,New Home Sales Change (MoM),United States,2,6.100,3.700,0.700
03/23/2017 14:00:00,New Home Sales (MoM),United States,2,0.592,0.555,0.565
03/23/2017 14:30:00,Targeted LTRO,European Monetary Union,2,233.470,62.200,
03/23/2017 15:00:00,Consumer Confidence,European Monetary Union,2,-5.000,-6.200,-5.700
03/23/2017 21:45:00,Trade Balance (MoM),New Zealand,2,-18.000,-285.000,160.000
03/23/2017 21:45:00,Imports,New Zealand,2,4.020,4.190,
03/23/2017 21:45:00,Trade Balance (YoY),New Zealand,2,-3.790,-3.470,
03/23/2017 21:45:00,Exports,New Zealand,2,4.010,3.910,
03/23/2017 23:00:00,FOMC Member Kaplan Speech,United States,2,,,
03/23/2017 23:50:00,Foreign bond investment,Japan,2,149.400,-703.900,
03/23/2017 23:50:00,Foreign investment in Japan stocks,Japan,2,-580.400,-722.700,
03/24/2017 05:00:00,Coincident Index,Japan,2,115.100,114.900,
03/24/2017 05:00:00,Leading Economic Index,Japan,2,104.900,105.500,
03/24/2017 07:45:00,Gross Domestic Product (YoY),France,2,1.100,1.200,
03/24/2017 08:30:00,Markit Services PMI,Germany,2,55.600,54.400,54.600
03/24/2017 08:30:00,Markit Manufacturing PMI,Germany,2,58.300,56.800,56.500
03/24/2017 08:30:00,Markit PMI Composite,Germany,2,57.000,56.100,56.000
03/24/2017 09:00:00,Markit PMI Composite,European Monetary Union,2,56.700,56.000,55.800
03/24/2017 09:00:00,Markit Services PMI,European Monetary Union,2,56.500,55.500,55.300
03/24/2017 09:00:00,Markit Manufacturing PMI,European Monetary Union,2,56.200,55.400,55.300
03/24/2017 12:30:00,Durable Goods Orders,United States,2,1.700,1.800,1.200
03/24/2017 12:30:00,Durable Goods Orders ex Transportation,United States,2,0.500,-0.200,0.600
03/24/2017 12:30:00,Consumer Price Index (MoM),Canada,2,0.200,0.900,0.200
03/24/2017 12:30:00,Consumer Price Index - Core (MoM),Canada,2,0.400,0.300,
03/24/2017 12:30:00,Consumer Price Index (YoY),Canada,2,2.000,2.100,2.100
03/24/2017 12:30:00,Bank of Canada Consumer Price Index Core (YoY),Canada,2,1.700,1.700,
03/24/2017 12:30:00,Bank of Canada Consumer Price Index Core (MoM),Canada,2,0.400,0.500,
03/24/2017 13:45:00,Markit Manufacturing PMI,United States,2,53.400,54.200,54.800
03/24/2017 13:45:00,Markit Services PMI,United States,2,52.900,53.800,54.200
03/24/2017 13:45:00,Markit PMI Composite,United States,2,53.200,54.100,
03/24/2017 20:15:00,US Congress votes Health Care Bill,United States,3,,,
03/27/2017 08:00:00,IFO - Expectations,Germany,2,105.700,104.000,104.300
03/27/2017 08:00:00,IFO - Current Assessment,Germany,2,119.300,118.400,118.300
03/27/2017 08:00:00,IFO - Business Climate,Germany,2,112.300,111.000,111.000
03/27/2017 14:30:00,Dallas Fed Manufacturing Business Index,United States,2,16.900,24.500,
03/28/2017 13:00:00,S&P/Case-Shiller Home Price Indices (YoY),United States,2,5.700,5.600,5.700
03/28/2017 14:00:00,Consumer Confidence,United States,2,125.600,114.800,114.000
03/28/2017 14:10:00,BoC Governor Poloz Speech,Canada,2,,,
03/28/2017 16:50:00,Fed's Yellen Speech,United States,2,,,
03/28/2017 23:50:00,Large Retailers' Sales,Japan,2,-2.700,-1.100,
03/28/2017 23:50:00,Retail Trade (YoY),Japan,2,0.100,1.000,0.500
03/28/2017 23:50:00,Retail Trade s.a (MoM),Japan,2,0.200,0.500,
03/29/2017 06:00:00,UBS Consumption Indicator,Switzerland,2,1.500,1.430,
03/29/2017 08:00:00,ZEW Survey - Expectations,Switzerland,2,29.600,19.400,
03/29/2017 08:30:00,Consumer Credit,United Kingdom,2,1.441,1.416,1.300
03/29/2017 08:30:00,Mortgage Approvals,United Kingdom,2,68.315,69.928,69.900
03/29/2017 11:45:00,UK government triggers Article 50 for Brexit,United Kingdom,3,,,
03/29/2017 12:45:00,Donald Tusk speech,European Monetary Union,3,,,
03/29/2017 14:00:00,Pending Home Sales (MoM),United States,2,5.500,-2.800,2.100
03/29/2017 14:00:00,Pending Home Sales (YoY),United States,2,2.600,0.400,
03/29/2017 23:50:00,Foreign investment in Japan stocks,Japan,2,-754.300,-580.400,
03/29/2017 23:50:00,Foreign bond investment,Japan,2,-151.600,149.400,
03/30/2017 00:00:00,HIA New Home Sales (MoM),Australia,2,0.200,-2.200,
03/30/2017 07:00:00,KOF Leading Indicator,Switzerland,2,107.600,107.200,106.000
03/30/2017 09:00:00,Economic Sentiment Indicator,European Monetary Union,2,107.900,108.000,108.300
03/30/2017 09:00:00,Business Climate,European Monetary Union,2,0.820,0.820,0.860
03/30/2017 09:00:00,Industrial Confidence,European Monetary Union,2,1.200,1.300,1.400
03/30/2017 09:00:00,Consumer Confidence,European Monetary Union,2,-5.000,-5.000,-5.000
03/30/2017 09:00:00,Services Sentiment,European Monetary Union,2,12.700,13.800,13.900
03/30/2017 12:30:00,Initial Jobless Claims,United States,2,258.000,258.000,248.000
03/30/2017 12:30:00,Gross Domestic Product Annualized,United States,3,2.100,1.900,
03/30/2017 12:30:00,Gross Domestic Product Price Index,United States,2,2.100,2.000,2.000
03/30/2017 12:30:00,Personal Consumption Expenditures Prices (QoQ),United States,2,2.000,1.900,2.100
03/30/2017 12:30:00,Core Personal Consumption Expenditures (QoQ),United States,2,1.300,1.200,1.200
03/30/2017 20:30:00,Fed's William Dudley speech,United States,2,,,
03/30/2017 23:01:00,Gfk Consumer Confidence,United Kingdom,2,-6.000,-6.000,
03/30/2017 23:30:00,National CPI Ex-Fresh Food (YoY),Japan,2,0.200,0.100,0.200
03/30/2017 23:30:00,National Consumer Price Index (YoY),Japan,2,0.300,0.400,
03/30/2017 23:30:00,"National CPI Ex Food, Energy (YoY)",Japan,2,0.100,0.200,
03/30/2017 23:30:00,Unemployment Rate,Japan,2,2.800,3.000,3.000
03/30/2017 23:30:00,Jobs/applicants ratio,Japan,2,1.430,1.430,1.430
03/30/2017 23:30:00,Overall Household Spending (YoY),Japan,2,-3.800,-1.200,-1.700
03/30/2017 23:50:00,Industrial Production (MoM),Japan,2,2.000,-0.400,1.200
03/30/2017 23:50:00,Industrial Production (YoY),Japan,2,4.800,3.700,
03/31/2017 01:00:00,NBS Manufacturing PMI,China,2,51.800,51.600,
03/31/2017 01:00:00,Non-manufacturing PMI,China,2,55.100,54.200,
03/31/2017 06:45:00,Consumer Price Index (EU norm) (YoY),France,2,1.400,1.400,1.400
03/31/2017 08:00:00,Unemployment Rate s.a.,Germany,2,5.800,5.900,5.900
03/31/2017 08:00:00,Unemployment Change,Germany,2,-30.000,-14.000,-10.000
03/31/2017 08:30:00,Gross Domestic Product (QoQ),United Kingdom,2,0.700,0.700,0.700
03/31/2017 08:30:00,Gross Domestic Product (YoY),United Kingdom,2,1.900,2.000,2.000
03/31/2017 09:00:00,Consumer Price Index (YoY),European Monetary Union,2,1.500,2.000,1.800
03/31/2017 09:00:00,Consumer Price Index - Core (YoY),European Monetary Union,2,0.700,0.900,0.900
03/31/2017 12:30:00,Personal Spending,United States,2,0.100,0.200,0.200
03/31/2017 12:30:00,Core Personal Consumption Expenditure - Price Index (YoY),United States,2,1.800,1.700,
03/31/2017 12:30:00,Personal Consumption Expenditures - Price Index (MoM),United States,2,0.100,0.400,
03/31/2017 12:30:00,Core Personal Consumption Expenditure - Price Index (MoM),United States,2,0.200,0.300,
03/31/2017 12:30:00,Personal Income (MoM),United States,2,0.400,0.400,0.400
03/31/2017 12:30:00,Personal Consumption Expenditures - Price Index (YoY),United States,2,2.100,1.900,
03/31/2017 12:30:00,Gross Domestic Product (MoM),Canada,2,0.600,0.300,0.300
03/31/2017 13:45:00,Chicago Purchasing Managers' Index,United States,2,57.700,57.400,56.500
04/02/2017 23:30:00,AiG Performance of Mfg Index,Australia,2,57.500,59.300,
04/02/2017 23:50:00,Tankan Non - Manufacturing Index,Japan,2,20.000,18.000,20.000
04/02/2017 23:50:00,Tankan Large All Industry Capex,Japan,2,0.600,5.500,-0.100
04/02/2017 23:50:00,Tankan Non - Manufacturing Outlook,Japan,2,16.000,16.000,18.000
04/02/2017 23:50:00,Tankan Large Manufacturing Index,Japan,2,12.000,10.000,14.000
04/02/2017 23:50:00,Tankan Large Manufacturing Outlook,Japan,2,11.000,8.000,13.000
04/03/2017 01:00:00,TD Securities Inflation (YoY),Australia,2,2.200,2.100,
04/03/2017 01:00:00,TD Securities Inflation (MoM),Australia,2,0.100,-0.300,
04/03/2017 01:30:00,Retail Sales s.a. (MoM),Australia,2,-0.100,0.400,0.300
04/03/2017 07:15:00,Real Retail Sales (YoY),Switzerland,2,0.600,-1.400,-0.800
04/03/2017 07:55:00,Markit Manufacturing PMI,Germany,2,58.300,58.300,58.300
04/03/2017 08:00:00,Unemployment,Italy,2,11.500,11.900,11.900
04/03/2017 08:00:00,Markit Manufacturing PMI,European Monetary Union,2,56.200,56.200,56.200
04/03/2017 08:30:00,Markit Manufacturing PMI,United Kingdom,2,54.200,54.600,55.100
04/03/2017 09:00:00,Unemployment Rate,European Monetary Union,2,9.500,9.600,9.500
04/03/2017 09:00:00,Producer Price Index (YoY),European Monetary Union,2,4.500,3.500,4.400
04/03/2017 13:30:00,Markit Manufacturing PMI,Canada,2,55.500,54.700,
04/03/2017 13:45:00,Markit Manufacturing PMI,United States,2,53.300,53.400,53.500
04/03/2017 14:00:00,ISM Prices Paid,United States,3,70.500,68.000,66.000
04/03/2017 14:00:00,ISM Manufacturing PMI,United States,3,57.200,57.700,57.000
04/03/2017 14:00:00,Construction Spending (MoM),United States,2,0.800,-1.000,1.000
04/03/2017 14:30:00,Bank of Canada Business Outlook Survey,Canada,2,,,
04/03/2017 22:00:00,NZIER Business Confidence (QoQ),New Zealand,2,17.000,28.000,
04/04/2017 01:30:00,Trade Balance,Australia,2,3574.000,1302.000,1800.000
04/04/2017 01:30:00,Exports,Australia,2,1.000,-3.000,
04/04/2017 01:30:00,Imports,Australia,2,-5.000,4.000,
04/04/2017 04:30:00,RBA Rate Statement,Australia,3,,,
04/04/2017 04:30:00,RBA Interest Rate Decision,Australia,3,1.500,1.500,1.500
04/04/2017 08:30:00,PMI Construction,United Kingdom,2,52.200,52.500,52.400
04/04/2017 12:30:00,Trade Balance,United States,2,-43.600,-48.500,-44.800
04/04/2017 14:00:00,Factory Orders (MoM),United States,2,1.000,1.200,1.000
04/04/2017 14:30:00,ECB President Draghi's Speech,European Monetary Union,3,,,
04/05/2017 07:00:00,Non-monetary policy's ECB meeting,European Monetary Union,3,,,
04/05/2017 07:15:00,Markit Services PMI,Spain,2,57.400,57.000,57.100
04/05/2017 07:55:00,Markit PMI Composite,Germany,2,57.100,57.000,57.000
04/05/2017 07:55:00,Markit Services PMI,Germany,2,55.600,55.600,55.600
04/05/2017 08:00:00,Markit PMI Composite,European Monetary Union,2,56.400,56.700,56.700
04/05/2017 08:00:00,Markit Services PMI,European Monetary Union,2,56.000,56.500,56.500
04/05/2017 12:15:00,ADP Employment Change,United States,2,263.000,298.000,187.000
04/05/2017 13:45:00,Markit PMI Composite,United States,2,53.000,53.200,
04/05/2017 13:45:00,Markit Services PMI,United States,2,52.800,52.900,53.100
04/05/2017 14:00:00,ISM Non-Manufacturing PMI,United States,2,55.200,57.600,57.000
04/05/2017 18:00:00,FOMC Minutes,United States,3,,,
04/05/2017 22:40:00,RBA Assist Gov Debelle Speech,Australia,2,,,
04/05/2017 23:50:00,Foreign investment in Japan stocks,Japan,2,584.500,-754.300,
04/05/2017 23:50:00,Foreign bond investment,Japan,2,1099.800,-151.600,
04/06/2017 01:45:00,Caixin China Services PMI,China,2,52.200,52.600,53.200
04/06/2017 07:00:00,ECB President Draghi's Speech,European Monetary Union,3,,,
04/06/2017 07:15:00,Consumer Price Index (MoM),Switzerland,2,0.200,0.500,0.500
04/06/2017 07:15:00,Consumer Price Index (YoY),Switzerland,2,0.600,0.600,
04/06/2017 09:40:00,German Buba President Weidmann speech,Germany,2,,,
04/06/2017 11:30:00,ECB Monetary Policy Meeting Accounts,European Monetary Union,3,,,
04/06/2017 12:30:00,Initial Jobless Claims,United States,2,234.000,258.000,250.000
04/06/2017 22:00:00,Trump-Xi Jinping meeting,United States,3,,,
04/06/2017 23:30:00,AiG Performance of Construction Index,Australia,2,51.200,53.100,
04/07/2017 05:45:00,Unemployment Rate s.a (MoM),Switzerland,2,3.300,3.300,3.300
04/07/2017 06:00:00,Imports (MoM),Germany,2,-1.600,3.000,-0.500
04/07/2017 06:00:00,Current Account n.s.a.,Germany,2,20.400,12.800,
04/07/2017 06:00:00,Exports (MoM),Germany,2,0.800,2.700,-0.500
04/07/2017 06:00:00,Trade Balance s.a.,Germany,2,21.000,18.500,18.400
04/07/2017 08:30:00,Manufacturing Production (MoM),United Kingdom,3,-0.100,-0.900,0.300
04/07/2017 08:30:00,Goods Trade Balance,United Kingdom,2,-12.460,-10.833,-10.700
04/07/2017 09:00:00,BOE's Governor Carney speech,United Kingdom,3,,,
04/07/2017 12:00:00,NIESR GDP Estimate (3M),United Kingdom,2,0.500,0.600,
04/07/2017 12:30:00,Unemployment Rate,United States,3,4.500,4.700,4.700
04/07/2017 12:30:00,Labor Force Participation Rate,United States,2,63.000,63.000,
04/07/2017 12:30:00,Average Hourly Earnings (MoM),United States,2,0.200,0.200,0.200
04/07/2017 12:30:00,Average Weekly Hours,United States,2,34.300,34.400,34.400
04/07/2017 12:30:00,Nonfarm Payrolls,United States,3,98.000,235.000,180.000
04/07/2017 12:30:00,Net Change in Employment,Canada,3,19.400,15.300,5.000
04/07/2017 12:30:00,Participation rate,Canada,2,65.900,65.800,
04/07/2017 12:30:00,Unemployment Rate,Canada,3,6.700,6.600,6.700
04/07/2017 14:00:00,Trump-Xi Jinping meeting,United States,3,,,
04/07/2017 14:00:00,Ivey Purchasing Managers Index,Canada,2,67.600,55.100,
04/07/2017 14:00:00,Ivey Purchasing Managers Index s.a,Canada,2,61.100,55.000,
04/07/2017 17:00:00,Baker Hughes US Oil Rig Count,United States,2,672.000,662.000,
04/07/2017 19:00:00,Consumer Credit Change,United States,2,15.210,8.790,
04/10/2017 01:30:00,Investment Lending for Homes,Australia,2,-5.900,4.200,
04/10/2017 01:30:00,Home Loans,Australia,2,-0.500,0.500,
04/10/2017 05:00:00,Eco Watchers Survey: Outlook,Japan,2,48.100,50.600,
04/10/2017 05:00:00,Eco Watchers Survey: Current,Japan,2,47.400,48.600,
04/10/2017 12:15:00,Housing Starts s.a (YoY),Canada,2,253.700,210.200,216.000
04/10/2017 14:00:00,Labor Market Conditions Index,United States,2,0.400,1.300,
04/10/2017 20:10:00,Fed's Yellen Speech,United States,3,,,
04/10/2017 22:45:00,Electronic Card Retail Sales (YoY),New Zealand,2,5.600,2.600,
04/10/2017 22:45:00,Electronic Card Retail Sales  (MoM),New Zealand,2,-0.300,-0.600,
04/10/2017 23:01:00,BRC Like-For-Like Retail Sales (YoY),United Kingdom,2,-1.000,-0.400,
04/11/2017 08:30:00,Producer Price Index - Output (MoM) n.s.a,United Kingdom,2,0.400,0.200,0.100
04/11/2017 08:30:00,PPI Core Output (MoM) n.s.a,United Kingdom,2,0.300,0.000,0.200
04/11/2017 08:30:00,Producer Price Index - Output (YoY) n.s.a,United Kingdom,2,3.600,3.700,3.300
04/11/2017 08:30:00,Producer Price Index - Input (MoM) n.s.a,United Kingdom,2,0.400,-0.400,-0.200
04/11/2017 08:30:00,Producer Price Index - Input (YoY) n.s.a,United Kingdom,2,17.900,19.100,17.000
04/11/2017 08:30:00,"PPI Core Output (YoY) n.s.a ",United Kingdom,2,2.500,2.400,2.500
04/11/2017 08:30:00,Consumer Price Index (YoY),United Kingdom,2,2.300,2.300,2.300
04/11/2017 08:30:00,Core Consumer Price Index (YoY),United Kingdom,2,1.800,2.000,1.900
04/11/2017 08:30:00,Consumer Price Index (MoM),United Kingdom,2,0.400,0.700,0.300
04/11/2017 09:00:00,Industrial Production s.a. (MoM),European Monetary Union,2,-0.300,0.900,0.100
04/11/2017 09:00:00,Industrial Production w.d.a. (YoY),European Monetary Union,2,1.200,0.600,2.000
04/11/2017 09:00:00,ZEW Survey - Economic Sentiment,Germany,2,19.500,12.800,14.000
04/11/2017 09:00:00,ZEW Survey - Economic Sentiment,European Monetary Union,2,26.300,25.600,25.000
04/11/2017 09:00:00,ZEW Survey - Current Situation,Germany,2,80.100,77.300,77.700
04/11/2017 17:00:00,10-Year Note Auction,United States,2,2.332,2.560,
04/12/2017 00:30:00,Westpac Consumer Confidence,Australia,2,-0.700,0.100,
04/12/2017 01:30:00,Consumer Price Index (YoY),China,2,0.900,0.800,1.000
04/12/2017 01:30:00,Producer Price Index (YoY),China,2,7.600,7.800,7.600
04/12/2017 01:30:00,Consumer Price Index (MoM),China,2,-0.300,-0.200,-0.300
04/12/2017 06:00:00,Wholesale Price Index (MoM),Germany,2,0.000,0.500,
04/12/2017 06:00:00,Wholesale Price Index (YoY),Germany,2,4.700,5.000,
04/12/2017 08:30:00,BOE's Governor Carney speech,United Kingdom,3,,,
04/12/2017 08:30:00,Claimant Count Change,United Kingdom,3,25.500,-11.300,-3.000
04/12/2017 08:30:00,ILO Unemployment Rate (3M),United Kingdom,2,4.700,4.700,4.700
04/12/2017 10:00:00,President Trump Speech,United States,3,,,
04/12/2017 10:57:36,10-y Bond Auction,Germany,2,0.210,0.410,
04/12/2017 14:00:00,Bank of Canada Monetary Policy Report,Canada,3,,,
04/12/2017 14:00:00,BoC Interest Rate Decision,Canada,3,0.500,0.500,0.500
04/12/2017 14:00:00,BoC Rate Statement,Canada,3,,,
04/12/2017 15:15:00,BoC Press Conference,Canada,3,,,
04/12/2017 18:00:00,Monthly Budget Statement,United States,2,-176.000,-192.000,-150.000
04/12/2017 20:15:00,BoC Governor Poloz Speech,Canada,3,,,
04/12/2017 22:30:00,Business NZ PMI,New Zealand,2,57.800,55.200,
04/12/2017 23:01:00,RICS Housing Price Balance,United Kingdom,2,22.000,24.000,22.000
04/12/2017 23:50:00,Foreign investment in Japan stocks,Japan,2,441.000,584.500,
04/12/2017 23:50:00,Foreign bond investment,Japan,2,-2176.800,1099.800,
04/13/2017 01:00:00,Consumer Inflation Expectation,Australia,2,4.100,4.000,
04/13/2017 01:30:00,Unemployment Rate s.a.,Australia,3,5.900,5.900,5.900
04/13/2017 01:30:00,Participation Rate,Australia,2,64.800,64.600,64.600
04/13/2017 01:30:00,Employment Change s.a.,Australia,3,60.900,-6.400,20.000
04/13/2017 03:10:56,Trade Balance USD,China,2,23.930,-9.150,10.000
04/13/2017 03:11:20,Exports (YoY),China,2,16.400,-1.300,3.200
04/13/2017 03:11:37,Imports (YoY),China,2,20.300,38.100,18.000
04/13/2017 03:12:57,Trade Balance CNY,China,2,164.340,-60.400,
04/13/2017 03:14:22,Exports (YoY) CNY,China,2,22.300,4.200,
04/13/2017 03:14:34,Imports (YoY) CNY,China,2,26.300,44.700,
04/13/2017 06:00:00,Harmonized Index of Consumer Prices (MoM),Germany,2,0.100,0.100,0.100
04/13/2017 06:00:00,Consumer Price Index (MoM),Germany,2,0.200,0.200,0.200
04/13/2017 06:00:00,Harmonized Index of Consumer Prices (YoY),Germany,2,1.500,1.500,1.500
04/13/2017 06:00:00,Consumer Price Index (YoY),Germany,2,1.600,1.600,1.600
04/13/2017 12:30:00,Initial Jobless Claims,United States,2,234.000,234.000,245.000
04/13/2017 12:30:00,New Housing Price Index (MoM),Canada,2,0.400,0.100,0.200
04/13/2017 12:30:00,New Housing Price Index (YoY),Canada,2,3.300,3.100,
04/13/2017 14:30:00,BoC Governor Poloz Speech,Canada,3,,,
04/13/2017 17:00:00,Baker Hughes US Oil Rig Count,United States,2,683.000,672.000,
04/14/2017 02:50:37,FDI - Foreign Direct Investment (YTD) (YoY),China,2,1.000,-2.300,
04/14/2017 04:30:00,Industrial Production (MoM),Japan,2,3.200,2.000,
04/14/2017 04:30:00,Industrial Production (YoY),Japan,2,4.700,4.800,
04/14/2017 12:30:00,Retail Sales (MoM),United States,3,-0.200,0.100,-0.100
04/14/2017 12:30:00,Retail Sales control group,United States,2,0.500,0.100,0.300
04/14/2017 12:30:00,Retail Sales ex Autos (MoM),United States,2,0.000,0.200,0.300
04/14/2017 12:30:00,Consumer Price Index Ex Food & Energy (YoY),United States,3,2.000,2.200,2.300
04/14/2017 12:30:00,Consumer Price Index (YoY),United States,3,2.400,2.700,2.600
04/14/2017 12:30:00,Consumer Price Index Ex Food & Energy (MoM),United States,2,-0.100,0.200,0.200
04/14/2017 12:30:00,Consumer Price Index (MoM),United States,2,-0.300,0.100,0.000
04/17/2017 02:00:00,Retail Sales (YoY),China,2,10.900,9.500,
04/17/2017 02:00:00,Industrial Production (YoY),China,2,7.600,6.300,
04/17/2017 02:00:00,NBS Press Conference,China,2,,,
04/17/2017 02:00:00,Gross Domestic Product (QoQ),China,3,1.300,1.700,
04/17/2017 02:00:00,Gross Domestic Product (YoY),China,3,6.900,6.800,
04/17/2017 06:15:00,Bank of Japan Governor Kuroda Speech,Japan,3,,,
04/17/2017 14:00:00,NAHB Housing Market Index,United States,2,68.000,71.000,
04/17/2017 21:00:00,Fed's Stanley Fischer speech,United States,2,,,
04/18/2017 01:30:00,RBA Meeting's Minutes,Australia,3,,,
04/18/2017 10:15:00,UK Prime Minister Theresa May speech,United Kingdom,3,,,
04/18/2017 12:30:00,Housing Starts Change,United States,2,-6.800,3.000,
04/18/2017 12:30:00,Building Permits Change,United States,2,3.600,-6.200,
04/18/2017 12:30:00,Housing Starts (MoM),United States,2,1.215,1.288,1.250
04/18/2017 12:30:00,Building Permits (MoM),United States,2,1.260,1.213,1.250
04/18/2017 13:15:00,Capacity Utilization,United States,2,76.100,75.400,76.200
04/18/2017 13:15:00,Industrial Production (MoM),United States,2,0.500,0.000,0.500
04/18/2017 14:21:55,GDT Price Index,New Zealand,2,3.100,1.600,
04/19/2017 09:00:00,Trade Balance s.a.,European Monetary Union,2,19.200,15.700,18.600
04/19/2017 09:00:00,Trade Balance n.s.a.,European Monetary Union,2,17.800,-0.600,16.200
04/19/2017 09:00:00,Consumer Price Index (YoY),European Monetary Union,2,1.500,1.500,1.500
04/19/2017 09:00:00,Consumer Price Index (MoM),European Monetary Union,2,0.800,0.400,0.800
04/19/2017 09:00:00,Consumer Price Index - Core (YoY),European Monetary Union,2,0.700,0.700,0.700
04/19/2017 09:00:00,Consumer Price Index - Core (MoM),European Monetary Union,2,1.400,0.400,
04/19/2017 18:00:00,Fed's Beige Book,United States,2,,,
04/19/2017 22:45:00,Consumer Price Index (QoQ),New Zealand,3,1.000,0.400,0.800
04/19/2017 22:45:00,Consumer Price Index (YoY),New Zealand,3,2.200,1.300,2.000
04/19/2017 23:50:00,Merchandise Trade Balance Total,Japan,2,614.700,813.400,575.800
04/19/2017 23:50:00,Imports (YoY),Japan,2,15.800,1.200,10.400
04/19/2017 23:50:00,Exports (YoY),Japan,2,12.000,11.300,6.700
04/19/2017 23:50:00,Adjusted Merchandise Trade Balance,Japan,2,172.202,680.300,
04/19/2017 23:50:00,Foreign investment in Japan stocks,Japan,2,315.200,441.000,
04/19/2017 23:50:00,Foreign bond investment,Japan,2,-796.200,-2176.800,
04/20/2017 01:30:00,National Australia Bank's Business Confidence (QoQ),Australia,2,6.000,5.000,
04/20/2017 06:00:00,Producer Price Index (YoY),Germany,2,3.100,3.100,3.100
04/20/2017 06:00:00,Producer Price Index (MoM),Germany,2,0.000,0.200,0.100
04/20/2017 09:30:00,30-y Bond Auction,Spain,2,2.957,2.761,
04/20/2017 12:30:00,Initial Jobless Claims,United States,2,244.000,234.000,242.000
04/20/2017 12:30:00,Philadelphia Fed Manufacturing Survey,United States,2,22.000,32.800,25.000
04/20/2017 14:00:00,Consumer Confidence,European Monetary Union,2,-3.600,-5.000,-4.800
04/20/2017 15:30:00,BOE's Governor Carney speech,United Kingdom,3,,,
04/20/2017 16:30:00,BOE's Governor Carney speech,United Kingdom,3,,,
04/20/2017 17:15:00,Treasury Sec Mnuchin Speech,United States,3,,,
04/21/2017 00:00:00,IMF Meeting,European Monetary Union,2,,,
04/21/2017 04:30:00,Tertiary Industry Index (MoM),Japan,2,0.200,0.000,
04/21/2017 07:30:00,Markit Services PMI,Germany,2,54.700,55.600,55.500
04/21/2017 07:30:00,Markit Manufacturing PMI,Germany,2,58.200,58.300,58.000
04/21/2017 07:30:00,Markit PMI Composite,Germany,2,56.300,57.100,56.800
04/21/2017 08:00:00,Markit PMI Composite,European Monetary Union,2,56.700,56.400,56.300
04/21/2017 08:00:00,Markit Services PMI,European Monetary Union,2,56.200,56.000,56.000
04/21/2017 08:00:00,Markit Manufacturing PMI,European Monetary Union,2,56.800,56.200,56.300
04/21/2017 12:30:00,Consumer Price Index (MoM),Canada,2,0.200,0.200,0.400
04/21/2017 12:30:00,Consumer Price Index - Core (MoM),Canada,2,0.300,0.400,
04/21/2017 12:30:00,Consumer Price Index (YoY),Canada,2,1.600,2.000,1.800
04/21/2017 12:30:00,Bank of Canada Consumer Price Index Core (MoM),Canada,2,0.300,0.400,
04/21/2017 12:30:00,Bank of Canada Consumer Price Index Core (YoY),Canada,2,1.300,1.700,
04/21/2017 13:30:00,FOMC Member Kashkari Speech,United States,2,,,
04/21/2017 13:45:00,Markit Manufacturing PMI,United States,2,52.800,53.300,53.500
04/21/2017 13:45:00,Markit PMI Composite,United States,2,52.700,53.000,
04/21/2017 13:45:00,Markit Services PMI,United States,2,52.500,52.800,53.000
04/21/2017 17:00:00,Baker Hughes US Oil Rig Count,United States,2,688.000,683.000,
04/22/2017 00:00:00,IMF Meeting,European Monetary Union,2,,,
04/22/2017 20:15:00,Treasury Sec Mnuchin Speech,United States,3,,,
04/23/2017 00:00:00,IMF Meeting,European Monetary Union,2,,,
04/23/2017 00:00:00,Presidential Election,France,3,,,
04/23/2017 23:01:00,Rightmove House Price Index (YoY),United Kingdom,2,2.200,2.300,
04/23/2017 23:01:00,Rightmove House Price Index (MoM),United Kingdom,2,1.100,1.300,
04/24/2017 05:00:00,Leading Economic Index,Japan,2,104.800,104.400,
04/24/2017 05:00:00,Coincident Index,Japan,2,115.300,115.500,
04/24/2017 08:00:00,IFO - Business Climate,Germany,2,112.900,112.300,112.500
04/24/2017 08:00:00,IFO - Expectations,Germany,2,105.200,105.700,106.000
04/24/2017 08:00:00,IFO - Current Assessment,Germany,2,121.100,119.300,119.200
04/24/2017 12:30:00,"Chicago Fed National Activity Index ",United States,2,0.080,0.340,
04/24/2017 14:30:00,Dallas Fed Manufacturing Business Index,United States,2,16.800,16.900,
04/25/2017 08:30:00,Public Sector Net Borrowing,United Kingdom,2,4.365,1.100,1.500
04/25/2017 13:00:00,S&P/Case-Shiller Home Price Indices (YoY),United States,2,5.900,5.700,5.700
04/25/2017 13:00:00,Housing Price Index (MoM),United States,2,0.800,0.000,0.100
04/25/2017 14:00:00,New Home Sales Change (MoM),United States,2,5.800,6.100,-0.500
04/25/2017 14:00:00,New Home Sales (MoM),United States,2,0.621,0.592,0.585
04/26/2017 01:30:00,RBA trimmed mean CPI (YoY),Australia,2,1.900,1.600,1.800
04/26/2017 01:30:00,Consumer Price Index (QoQ),Australia,3,0.500,0.500,0.600
04/26/2017 01:30:00,Consumer Price Index (YoY),Australia,2,2.100,1.500,2.200
04/26/2017 01:30:00,RBA trimmed mean CPI (QoQ),Australia,3,0.500,0.400,0.500
04/26/2017 04:30:00,All Industry Activity Index (MoM),Japan,2,0.700,0.100,
04/26/2017 06:00:00,UBS Consumption Indicator,Switzerland,2,1.500,1.500,
04/26/2017 08:00:00,ZEW Survey - Expectations,Switzerland,2,22.200,29.600,
04/26/2017 12:30:00,Retail Sales ex Autos (MoM),Canada,2,-0.100,1.700,-0.300
04/26/2017 12:30:00,Retail Sales (MoM),Canada,2,-0.600,2.200,-0.100
04/26/2017 14:30:00,EIA Crude Oil Stocks change,United States,2,-3.641,-1.034,-1.661
04/26/2017 23:50:00,Foreign bond investment,Japan,2,-1283.800,-796.200,
04/26/2017 23:50:00,Foreign investment in Japan stocks,Japan,2,258.400,315.200,
04/27/2017 03:15:00,BoJ Interest Rate Decision,Japan,3,-0.100,-0.100,-0.100
04/27/2017 03:15:00,"BoJ Monetary Policy Statement ",Japan,3,,,
04/27/2017 03:15:00,BoJ outlook report,Japan,2,,,
04/27/2017 06:00:00,Gfk Consumer Confidence Survey,Germany,2,10.200,9.800,9.900
04/27/2017 06:30:00,BoJ Press Conference,Japan,3,,,
04/27/2017 09:00:00,Economic Sentiment Indicator,European Monetary Union,2,109.600,107.900,108.100
04/27/2017 09:00:00,Business Climate,European Monetary Union,2,1.090,0.820,0.820
04/27/2017 09:00:00,Industrial Confidence,European Monetary Union,2,2.600,1.200,1.300
04/27/2017 09:00:00,Consumer Confidence,European Monetary Union,2,-3.600,-3.600,-3.600
04/27/2017 09:00:00,Services Sentiment,European Monetary Union,2,14.200,12.700,13.000
04/27/2017 09:10:00,RBA's Governor Philip Lowe Speech,Australia,3,,,
04/27/2017 11:45:00,ECB Deposit Rate Decision,European Monetary Union,3,-0.400,-0.400,-0.400
04/27/2017 11:45:00,ECB Interest Rate Decision,European Monetary Union,3,0.000,0.000,0.000
04/27/2017 12:00:00,Harmonized Index of Consumer Prices (MoM),Germany,2,0.000,0.100,-0.100
04/27/2017 12:00:00,Consumer Price Index (MoM),Germany,2,0.000,0.200,-0.100
04/27/2017 12:00:00,Harmonized Index of Consumer Prices (YoY),Germany,2,2.000,1.500,1.900
04/27/2017 12:00:00,Consumer Price Index (YoY),Germany,2,2.000,1.600,1.900
04/27/2017 12:30:00,Initial Jobless Claims,United States,2,257.000,244.000,241.000
04/27/2017 12:30:00,ECB Monetary policy statement and press conference,European Monetary Union,3,,,
04/27/2017 12:30:00,Durable Goods Orders,United States,3,0.700,1.700,1.200
04/27/2017 12:30:00,Durable Goods Orders ex Transportation,United States,3,-0.200,0.500,0.400
04/27/2017 14:00:00,Pending Home Sales (MoM),United States,2,-0.800,5.500,-1.000
04/27/2017 14:00:00,Pending Home Sales (YoY),United States,2,0.800,2.600,
04/27/2017 22:45:00,Building Permits s.a. (MoM),New Zealand,2,-1.800,14.000,
04/27/2017 22:45:00,Trade Balance (MoM),New Zealand,2,332.000,-18.000,
04/27/2017 22:45:00,Imports,New Zealand,2,4.310,4.020,
04/27/2017 22:45:00,Trade Balance (YoY),New Zealand,2,-3.670,-3.790,
04/27/2017 22:45:00,Exports,New Zealand,2,4.650,4.010,
04/27/2017 23:01:00,Gfk Consumer Confidence,United Kingdom,2,-7.000,-6.000,-7.000
04/27/2017 23:30:00,National Consumer Price Index (YoY),Japan,2,0.200,0.300,
04/27/2017 23:30:00,National CPI Ex-Fresh Food (YoY),Japan,2,0.200,0.200,0.300
04/27/2017 23:30:00,"National CPI Ex Food, Energy (YoY)",Japan,2,-0.100,0.100,
04/27/2017 23:30:00,Unemployment Rate,Japan,2,2.800,2.800,2.900
04/27/2017 23:30:00,Jobs/applicants ratio,Japan,2,1.450,1.430,1.430
04/27/2017 23:50:00,Industrial Production (MoM),Japan,2,-2.100,3.200,-0.800
04/27/2017 23:50:00,Industrial Production (YoY),Japan,2,3.300,4.700,
04/27/2017 23:50:00,Large Retailers' Sales,Japan,2,-0.800,-2.700,
04/27/2017 23:50:00,Retail Trade (YoY),Japan,2,2.100,0.100,1.500
04/27/2017 23:50:00,Retail Trade s.a (MoM),Japan,2,0.200,0.200,
04/27/2017 23:50:00,Overall Household Spending (YoY),Japan,2,-1.300,-3.800,-0.300
04/28/2017 05:30:00,Gross Domestic Product (YoY),France,2,0.800,1.100,
04/28/2017 05:30:00,Gross Domestic Product (QoQ),France,2,0.300,0.400,0.400
04/28/2017 06:45:00,Consumer Price Index (EU norm) (YoY),France,2,1.400,1.400,1.400
04/28/2017 07:00:00,KOF Leading Indicator,Switzerland,2,106.000,107.600,107.800
04/28/2017 08:00:00,SNB Chairman Jordan Speech,Switzerland,2,,,
04/28/2017 08:30:00,Gross Domestic Product (QoQ),United Kingdom,2,0.300,0.700,0.400
04/28/2017 08:30:00,Gross Domestic Product (YoY),United Kingdom,2,2.100,1.900,2.200
04/28/2017 09:00:00,Consumer Price Index (YoY),European Monetary Union,2,1.900,1.500,1.800
04/28/2017 09:00:00,Consumer Price Index - Core (YoY),European Monetary Union,2,1.200,0.700,1.000
04/28/2017 12:30:00,Gross Domestic Product Annualized,United States,3,0.700,2.100,1.200
04/28/2017 12:30:00,Gross Domestic Product Price Index,United States,3,2.200,2.100,2.000
04/28/2017 12:30:00,Gross Domestic Product (MoM),Canada,2,0.000,0.600,0.000
04/28/2017 12:30:00,Personal Consumption Expenditures Prices (QoQ),United States,2,2.400,2.000,2.300
04/28/2017 12:30:00,Core Personal Consumption Expenditures (QoQ),United States,2,2.000,1.300,2.000
04/28/2017 13:45:00,Chicago Purchasing Managers' Index,United States,2,58.300,57.700,56.400
04/28/2017 17:00:00,Baker Hughes US Oil Rig Count,United States,2,697.000,688.000,
04/29/2017 16:00:00,EU leaders summit,European Monetary Union,3,,,
04/30/2017 01:00:00,Non-manufacturing PMI,China,2,54.000,55.100,
04/30/2017 01:00:00,NBS Manufacturing PMI,China,2,51.200,51.800,51.600
04/30/2017 23:30:00,AiG Performance of Mfg Index,Australia,2,59.200,57.500,
