date,subjectivity,polarity
2012-01-03,0.35,0.05
2012-01-10,0.16666666666666666,0.16666666666666666
2012-01-13,0.4747186147186147,0.29691558441558435
2012-01-18,0.7611111111111111,0.2833333333333333
2012-01-24,0.65,0.5
2012-01-25,0.625,0.4
2012-01-26,0.59375,0.0625
2012-01-27,1.0,-1.0
2012-01-29,0.325,0.25
2012-02-01,0.4420454545454545,0.02803030303030303
2012-02-06,0.7,0.140625
2012-02-07,0.75,0.25
2012-02-08,0.2,0.2
2012-02-10,0.3,0.5
2012-02-13,0.175,0.5
2012-02-17,0.4666666666666666,-0.06666666666666667
2012-02-20,0.4,0.1
2012-02-23,0.32727272727272727,0.21818181818181817
2012-02-26,0.43472222222222223,0.12083333333333335
2012-02-27,0.45,0.2
2012-02-29,0.546875,0.171875
2012-03-01,0.45,0.175
2012-03-04,0.39999999999999997,-0.06666666666666667
2012-03-05,0.4,0.3
2012-03-07,0.5,0.5
2012-03-08,0.27777777777777773,0.16666666666666666
2012-03-09,0.4,0.35
2012-03-10,0.1,0.2
2012-03-12,0.35,-0.05
2012-03-13,0.4,0.0
2012-03-14,0.55,0.05833333333333335
2012-03-15,0.30000000000000004,0.0
2012-03-16,0.2,-0.075
2012-03-19,0.5,0.5
2012-03-20,0.4,-0.3
2012-03-21,0.25,0.08333333333333333
2012-03-23,0.3388888888888889,-0.21388888888888885
2012-03-25,0.3,-0.3166666666666667
2012-03-26,0.15,-0.15833333333333335
2012-03-27,0.5375,0.3375
2012-03-28,0.525,0.125
2012-03-29,0.6,-0.1
2012-03-30,0.41833333333333333,0.47750000000000004
2012-04-02,0.3666666666666667,0.16666666666666666
2012-04-03,0.45454545454545453,0.13636363636363635
2012-04-04,0.26666666666666666,0.19999999999999998
2012-04-09,0.41439393939393937,-0.10707070707070708
2012-04-11,0.4,0.2
2012-04-12,0.625,0.20833333333333334
2012-04-17,0.5833333333333333,-0.09999999999999992
2012-04-18,0.406,0.05333333333333333
2012-04-19,0.65,0.3833333333333333
2012-04-20,0.7416666666666667,-0.020833333333333343
2012-04-23,0.5399999999999999,0.16
2012-04-24,0.725,-0.20416666666666666
2012-04-26,0.47916666666666663,0.1625
2012-04-30,0.55,0.625
2012-05-01,0.48666666666666664,-0.01833333333333333
2012-05-03,0.45454545454545453,0.13636363636363635
2012-05-07,0.55,0.6
2012-05-08,0.39999999999999997,-0.15
2012-05-10,0.49833333333333335,0.2516666666666667
2012-05-11,0.5203787878787879,0.17337121212121212
2012-05-14,0.3,0.3
2012-05-16,0.08333333333333334,0.016666666666666666
2012-05-17,0.4,-0.2
2012-05-21,0.7916666666666666,-0.20833333333333334
2012-05-23,0.55,0.2
2012-05-30,0.37135416666666665,0.1875
2012-05-31,0.6166666666666667,-0.325
2012-06-01,0.55,-0.05
2012-06-04,1.0,0.0
2012-06-06,0.26999999999999996,0.08
2012-06-07,0.6071428571428572,0.25357142857142856
2012-06-08,1.0,0.8
2012-06-13,0.5173611111111112,0.2826388888888889
2012-06-14,0.575,-0.075
2012-06-18,0.5,0.5
2012-06-19,0.375,-0.125
2012-06-21,0.775,-0.55
2012-06-22,0.6833333333333333,0.15833333333333333
2012-06-27,0.5,0.5
2012-06-29,0.36666666666666664,0.022222222222222227
2012-07-02,0.25,-0.25
2012-07-03,0.3,0.2
2012-07-09,0.5399999999999999,0.16
2012-07-10,0.45625,-0.018750000000000003
2012-07-12,0.5,0.0
2012-07-16,0.4,0.25
2012-07-18,0.1,0.07500000000000001
2012-07-20,0.6,-0.1
2012-07-23,0.52,0.33
2012-07-24,0.26666666666666666,-0.15
2012-07-25,0.525,0.175
2012-08-09,0.7272727272727273,0.3181818181818182
2012-08-10,0.7166666666666667,0.3333333333333333
2012-08-15,0.3,0.0
2012-08-16,0.8500000000000001,0.45
2012-08-17,0.3527777777777778,0.05555555555555554
2012-08-20,0.2,0.5
2012-09-07,0.5714285714285714,0.35714285714285715
2012-09-10,0.4731481481481481,0.07407407407407407
2012-09-21,0.39999999999999997,-0.15
2012-10-02,0.77,-0.42
2012-10-04,0.47,0.28625
2012-10-05,0.06666666666666667,0.0
2012-10-09,0.45,0.0
2012-10-10,0.6,-0.2833333333333333
2012-10-17,0.06666666666666667,0.19999999999999998
2012-10-19,0.36666666666666664,-0.3333333333333333
2012-10-22,0.45454545454545453,0.13636363636363635
2012-11-02,0.5,0.0
2012-11-05,0.3,0.0
2012-11-06,0.3333333333333333,0.25
2012-11-07,0.2694444444444445,-0.07777777777777779
2012-11-08,0.55,-0.5
2012-11-13,0.2,0.25
2012-11-14,0.29629629629629634,0.11481481481481481
2012-11-15,0.6,-0.06666666666666665
2012-12-03,0.3833333333333333,-0.05000000000000001
2012-12-04,0.7833333333333333,-0.24166666666666667
2012-12-06,0.26999999999999996,0.08
2012-12-07,0.15,0.0
2012-12-10,0.575,0.2475
2012-12-11,0.3,0.0625
2012-12-12,0.3333333333333333,0.25
2012-12-17,0.49,0.15583333333333332
2012-12-18,0.675,0.35
2012-12-20,0.9,-0.6
2012-12-21,0.26999999999999996,0.08
