date,subjectivity,polarity
2014-05-29,0.5396569223535522,0.28871872821311007
2014-05-30,0.4551953748006382,0.19740713051568323
2014-05-31,0.401592394533571,0.2196345811051693
2014-06-01,0.42686868686868684,0.1793939393939394
2014-06-02,0.40426777426777444,0.06256561756561756
2014-06-03,0.5346884185773081,0.3074472235583341
2014-06-04,0.5236559578169173,0.27338786593923525
2014-06-05,0.5315930646024111,0.3066354825513701
2014-06-06,0.568237872552685,0.3588122583863335
2014-06-07,0.3623015873015872,0.2695238095238095
2014-06-08,0.599582417582418,0.3685860805860804
2014-06-09,0.5612780784030772,0.33949843674843605
2014-06-10,0.5724823848136973,0.34379428033839904
2014-06-11,0.5620501821871666,0.34449125962824584
2014-06-12,0.5655472499077132,0.3595947011644685
2014-06-13,0.4371306744257567,0.12480957112104653
2014-06-14,0.43297682709447416,0.32754010695187163
2014-06-15,0.5,0.29
2014-06-16,0.44351261057782804,0.05849014210427253
2014-06-17,0.43396300304633645,0.15890917107583774
2014-06-18,0.4726307189542483,0.10546271538918596
2014-06-19,0.42897370530703893,0.058739738656405326
2014-06-20,0.3984820689328887,0.023501613581659687
2014-06-21,0.46888206388206394,0.015085995085995084
2014-06-22,0.41715700965700975,-0.09562853812853812
2014-06-23,0.4146636822773186,0.048267117194674004
2014-06-24,0.40353011825572804,0.036312823355506285
2014-06-25,0.4276249508067691,0.017081857536402973
2014-06-26,0.4545562770562772,0.049469696969696955
2014-06-27,0.4134169156352256,0.059598449281547866
2014-06-28,0.5719801462904907,0.32145245559038593
2014-06-29,0.5237097162097161,0.026630591630591623
2014-06-30,0.4596854285037878,0.09981484769570713
2014-07-01,0.4306302893802894,0.08492884930384931
2014-07-02,0.3971465975544923,0.025673489278752428
2014-07-03,0.4509417949991722,0.07509935419771485
2014-07-04,0.46148664059954386,0.20508471814923426
2014-07-05,0.4890810276679842,0.07747035573122528
2014-07-06,0.4271306818181818,0.14616477272727274
2014-07-07,0.4184777600567075,0.014651780967570433
2014-07-08,0.4440113463401135,0.025198355559014788
2014-07-09,0.4401430976430976,0.10447811447811448
2014-07-10,0.4632693602693602,0.13595791245791244
2014-07-11,0.4853344340844338,0.06155999093499092
2014-07-12,0.4693841642228739,0.18907135874877815
2014-07-13,0.4948653198653198,0.16043771043771043
2014-07-14,0.4426712962962963,0.07494739057239057
2014-07-15,0.44750435388366394,0.07470045280390107
2014-07-16,0.44173846190239613,0.12267942894992073
2014-07-17,0.4116000296000295,0.07282290857290856
2014-07-18,0.46616516037568656,0.1053947368421053
2014-07-19,0.4667183742183742,0.12138287638287634
2014-07-20,0.4980519480519482,0.03311688311688311
2014-07-21,0.4726160295768138,0.06495923285138973
2014-07-22,0.4873725778190062,0.15918410830241195
2014-07-23,0.4830114959114956,0.10017834896584898
2014-07-24,0.44198966178418225,0.08215491510012056
2014-07-25,0.4352817164049048,0.10455401147430135
2014-07-26,0.4979859198041017,0.18966329966329964
2014-07-27,0.5285594035594036,0.12216209716209715
2014-07-28,0.4063980078563411,0.007123288070045061
2014-07-29,0.42232349954572174,0.0741197899965261
2014-07-30,0.5143501947465362,0.125119810639056
2014-07-31,0.44871544730565366,0.057746149516768076
2014-08-01,0.4625315138246175,0.09956559644059651
2014-08-02,0.46648098633392754,0.048029931669637545
2014-08-03,0.47377622377622386,0.08426573426573426
2014-08-04,0.46180368499812935,0.015851921997755338
2014-08-05,0.4536102831594634,0.059394870839542965
2014-08-06,0.47278320786754513,0.07877675492735736
2014-08-07,0.48210406788978205,0.08357105064247922
2014-08-08,0.4823928126667851,0.07762965598582046
2014-08-09,0.4829405162738495,0.07377946127946128
2014-08-10,0.4777424242424243,0.012295454545454535
2014-08-11,0.4894566353187044,0.005449320794148373
2014-08-12,0.49348484848484825,0.15683333333333335
2014-08-13,0.4180293501048215,0.092985277301315
2014-08-14,0.4538021960678211,0.10744447826479078
2014-08-15,0.43185632885632885,0.07504288304288304
2014-08-16,0.4674566174566175,0.10054066304066303
2014-08-17,0.5071268237934904,0.28470819304152634
2014-08-18,0.4215138930836604,0.07613661532266183
2014-08-19,0.44001015052485654,0.13205424341453756
2014-08-20,0.49430948832588184,0.16626759397251206
2014-08-21,0.4647966455158235,0.10308308130225943
2014-08-22,0.4563062223971315,0.09470836066290618
2014-08-23,0.4570995670995672,0.04906926406926404
2014-08-24,0.4531468531468531,0.11188811188811189
2014-08-25,0.47984214972019856,0.15767621775243715
2014-08-26,0.46135188224473944,0.1417007199150056
2014-08-27,0.4040515211640214,0.09366103294853298
2014-08-28,0.4318490460157126,0.042934711095630636
2014-08-29,0.41070768288950066,0.06477119681665143
2014-08-30,0.46329471182412363,0.10617944147355911
2014-08-31,0.46518759018759026,0.06522366522366521
2014-09-01,0.45876068376068374,0.24657148407148408
2014-09-02,0.4515883036716368,0.11824975949975952
2014-09-03,0.46874165382639915,0.07613507960965589
2014-09-04,0.5258128156565653,0.0393505366161616
2014-09-05,0.4437546270154963,0.05476420519898785
2014-09-06,0.5110705266955267,0.1105609668109668
2014-09-07,0.5465034965034964,0.19020979020979017
2014-09-08,0.43389854426619107,0.03373366013071897
2014-09-09,0.4400914276695524,0.06895201403685289
2014-09-10,0.4731663059163058,0.06352651515151513
2014-09-11,0.528304726462621,0.1255597326649958
2014-09-12,0.46781487380543957,0.12698183400718777
2014-09-13,0.4737985919804102,0.08414447505356594
2014-09-14,0.4462121212121211,0.06660353535353535
2014-09-15,0.4716049382716047,0.11694765111431789
2014-09-16,0.4404370629370626,0.0994172494172494
2014-09-17,0.4300242842775307,0.10568102952843214
2014-09-18,0.423520127059088,0.09893377185584983
2014-09-19,0.4380195396588836,0.09389799635701274
2014-09-20,0.4470570570570571,0.06722222222222221
2014-09-21,0.48459595959595964,0.06388888888888887
2014-09-22,0.4352178030303027,0.09914366883116883
2014-09-23,0.45695827320827287,0.08754426707551706
2014-09-24,0.4810666185666183,0.15661976911976924
2014-09-25,0.4473004896696757,0.06925953803679094
2014-09-26,0.47401262272585803,0.07829969424638544
2014-09-27,0.43974025974025976,0.10798701298701296
2014-09-28,0.46144781144781155,0.01742424242424243
2014-09-29,0.4125577812018487,0.07756912343776753
2014-09-30,0.5021442099567096,0.1145111832611833
2014-10-01,0.441606414484986,-0.0015264052085480612
2014-10-02,0.5453353300446323,0.17775311252055437
2014-10-03,0.47506899350649323,0.07891617063492073
2014-10-04,0.4582357667584941,0.02830004591368225
2014-10-05,0.48267045454545454,0.10501893939393939
2014-10-06,0.46561600857055385,0.09950016944335127
2014-10-07,0.4616755967165801,0.023022526198755684
2014-10-08,0.448543375936233,0.0799451616505189
2014-10-09,0.467243414537532,0.027059030872449985
2014-10-10,0.4515153302653304,0.017329336235586242
2014-10-11,0.4205319865319866,-0.018977873977873993
2014-10-12,0.49935185185185194,0.16780633718133722
2014-10-13,0.4748486451819788,0.0881770808281225
2014-10-14,0.48450250270562745,0.0732919597763348
2014-10-15,0.4876417343423155,0.07152017125854339
2014-10-16,0.43989831349206343,0.07761135912698411
2014-10-17,0.42670270890725426,0.009724058769513304
2014-10-18,0.45279720279720254,0.0029283216783216634
2014-10-19,0.47288059163059193,0.05323232323232331
2014-10-20,0.47614148733713957,0.10410252891231156
2014-10-21,0.48079528138527927,0.06585331168831139
2014-10-22,0.47072676767676774,0.05477550505050499
2014-10-23,0.482589267157169,0.07366462983746919
2014-10-24,0.46343451623073423,0.09029156005836651
2014-10-25,0.4086463086463088,0.43630367380367385
2014-10-26,0.3789785611214182,0.5725739538239537
2014-10-27,0.35929976456292256,0.484680213792056
2014-10-28,0.4598611111111112,0.47702183121537955
2014-10-29,0.3871695641219451,0.08742794154698916
2014-10-30,0.45569135802469135,0.21120573793490466
2014-10-31,0.45450947040710815,0.14505419208962517
2014-11-01,0.4395836940836941,0.12403033738748026
2014-11-02,0.447564935064935,0.07178030303030304
2014-11-03,0.45736596736596735,0.3136713286713287
2014-11-04,0.49096787985676876,0.10337284885895998
2014-11-05,0.41236793219551837,0.14680570068501103
2014-11-06,0.4565233485650151,0.13164228595478594
2014-11-07,0.48447058991613456,0.18935411398282692
2014-11-08,0.4428825957992624,0.18352152477152484
2014-11-09,0.4593267496392496,0.2257561585240157
2014-11-10,0.4452777777777776,0.1267808902983322
2014-11-11,0.40457120375598626,0.12946601104209804
2014-11-12,0.4101726017466757,0.14337621363547295
2014-11-13,0.4303616193214732,0.14773841451533065
2014-11-14,0.407075784547747,0.11996114010600001
2014-11-15,0.45309416122848944,0.11113017165255971
2014-11-16,0.44878825456950455,0.1557532730579606
2014-11-17,0.4429391862346406,0.1512513118194937
2014-11-18,0.4656463326646253,0.11076244148805128
2014-11-19,0.4391348231778856,0.1442897964608491
2014-11-20,0.4694535413725553,0.18412037883868873
2014-11-21,0.4631663614163615,0.14324978753885004
2014-11-22,0.44730161787365197,0.1090437211093991
2014-11-23,0.47039811379097085,0.09035250463821892
2014-11-24,0.4683783037949704,0.11770231311897987
2014-11-25,0.43153378636429474,0.2268483211703551
2014-11-26,0.4971469990914435,0.20065574728769178
2014-11-27,0.45373564840956143,0.17108319217014872
2014-11-28,0.40649064171122984,0.13575720439691036
2014-11-29,0.4032982132246838,0.1544563633534222
2014-11-30,0.43296259296259304,0.18575831575831575
2014-12-01,0.45651913592212107,0.08801253472895265
2014-12-02,0.45684083694083666,0.12724114357864363
2014-12-03,0.4644901728929505,0.19237671022393255
2014-12-04,0.4603765519781145,0.12842395307239057
2014-12-05,0.5094274276541716,0.2532621760238039
2014-12-06,0.48518344539621144,0.20888777593564828
2014-12-07,0.4186580086580086,0.039621212121212133
2014-12-08,0.42425296925296935,0.14093964368964373
2014-12-09,0.47876147842056926,0.10962752525252535
2014-12-10,0.46694346057982405,0.13735307621671258
2014-12-11,0.5311793479590088,0.15079930662557783
2014-12-12,0.4261870245666542,0.13959393315874802
2014-12-13,0.4369029788857374,0.1425759649035511
2014-12-14,0.44174375053051523,0.1444655058993294
2014-12-15,0.4442643642171944,0.10472655576429163
2014-12-16,0.44446769866227404,0.09912423482352731
2014-12-17,0.47377360562143167,0.0896179575255662
2014-12-18,0.4305194731871562,0.11489272809394764
2014-12-19,0.4210788578173635,0.15901470230493225
2014-12-20,0.40183109419316315,0.16663907548390303
2014-12-21,0.4549864718614719,0.2621266233766234
2014-12-22,0.3819833144833144,0.15160790660790666
2014-12-23,0.4054309907790021,0.17198883065981793
2014-12-24,0.4380710595596093,0.139519733870879
2014-12-25,0.42023471800067547,0.0617646065518406
2014-12-26,0.5259427609427608,0.17530142696809367
2014-12-27,0.41047464440321585,0.16231189445475164
2014-12-28,0.435336875701459,0.2316710946268238
2014-12-29,0.4256757634827811,0.1464993080343958
2014-12-30,0.4427361289861293,0.12464752902252912
2014-12-31,0.40837879933118026,0.1806973361735267
