"date","volume"
2014-08-04,3.6302174823226
2014-08-05,3.45611825525092
2014-08-06,3.38997569269258
2014-08-07,3.4768772235142
2014-08-08,3.33657223844558
2014-08-11,3.19350095333778
2014-08-12,3.06632055028551
2014-08-13,2.98677422842785
2014-08-14,2.81994178291766
2014-08-15,2.75538002810521
2014-08-18,2.8726903611054
2014-08-19,2.75674274975013
2014-08-20,2.85976151489564
2014-08-21,2.77276427897848
2014-08-22,2.73835757829652
2014-08-25,2.48868610083449
2014-08-26,2.41863761747042
2014-08-27,2.42147104614724
2014-08-28,2.4062732690223
2014-08-29,2.47280067581173
2014-09-02,2.24041308784146
2014-09-03,2.53197617539232
2014-09-04,2.55639422818885
2014-09-05,2.72951841250628
2014-09-08,2.74960583705842
2014-09-09,2.75335931532401
2014-09-10,2.78679210543539
2014-09-11,2.81884745476563
2014-09-12,2.84987232376608
2014-09-15,2.95795543353186
2014-09-16,2.8881147459103
2014-09-17,2.96818642172998
2014-09-18,3.03777188547557
2014-09-19,3.09271476360941
2014-09-22,3.67208832000209
2014-09-23,3.55331673887832
2014-09-24,3.45093288194173
2014-09-25,3.39406060499745
2014-09-26,3.3426833766187
2014-09-29,3.19505425894113
2014-09-30,3.15107828388707
2014-10-01,3.40442469148721
2014-10-02,3.65168454982211
2014-10-03,3.75842505938118
2014-10-06,3.64588129063681
2014-10-07,3.62413075931581
2014-10-08,3.53945219443457
2014-10-09,3.92222852911053
2014-10-10,3.98940131056346
2014-10-13,4.17258057127225
2014-10-14,4.23631563696185
2014-10-15,4.49278573029428
2014-10-16,4.9368326904501
2014-10-17,5.0142742035061
2014-10-20,4.73976790352927
2014-10-21,4.37437577216646
2014-10-22,4.25386351851876
2014-10-23,4.02059925845675
2014-10-24,3.99823297607581
2014-10-27,3.7494598762589
2014-10-28,3.57839258322349
2014-10-29,3.74738182125152
2014-10-30,3.69439481677918
2014-10-31,3.60055921803355
2014-11-03,3.86577248246622
2014-11-04,3.7030464199447
2014-11-05,3.78558854976585
2014-11-06,3.73183670520008
2014-11-07,3.74951960684727
2014-11-10,3.74863748968512
2014-11-11,3.50098831500858
2014-11-12,3.40706685536597
2014-11-13,3.30228873562285
2014-11-14,3.46862727266531
2014-11-17,3.25841285076448
2014-11-18,3.23502552827311
2014-11-19,3.28389049840049
2014-11-20,3.30810595311109
2014-11-21,3.20290136400363
2014-11-24,3.53141159486597
2014-11-25,3.46157253019706
2014-11-26,3.43542018416226
2014-11-28,3.11811585782807
2014-12-01,3.00840090018218
2014-12-02,3.34454281480112
2014-12-03,3.37507968811199
2014-12-04,3.55745753241356
2014-12-05,3.55300074937893
2014-12-08,3.38965838464903
2014-12-09,3.53636977113769
2014-12-10,3.66757142522838
2014-12-11,3.80264915514287
2014-12-12,3.82786709094483
2014-12-15,3.94218750388313
2014-12-16,4.20134246877099
2014-12-17,4.43374955600595
2014-12-18,4.49021068671681
2014-12-19,4.56782411113243
2014-12-22,5.17858379219322
2014-12-23,4.56419676409126
2014-12-24,4.04718026234748
2014-12-26,3.16566721113515
2014-12-29,2.70141867488345
2014-12-30,2.69093044962214
2014-12-31,2.58420030472797
2015-01-02,2.66186741795236
2015-01-05,2.56099417557195
2015-01-06,3.00172692984691
2015-01-07,3.55361358988047
2015-01-08,3.60978409414351
2015-01-09,3.74904345271267
2015-01-12,3.58751154049868
2015-01-13,3.51423615484302
2015-01-14,3.79035564656299
2015-01-15,3.95674533153309
2015-01-16,4.0934316121971
2015-01-20,4.01081134059711
2015-01-21,3.98975036851856
2015-01-22,3.89406964156651
2015-01-23,4.01215201987784
2015-01-26,3.82502864782974
2015-01-27,3.838998820582
2015-01-28,3.65472481607385
2015-01-29,3.64748458941331
2015-01-30,3.90133464769647
2015-02-02,4.04959102109276
2015-02-03,4.03379931265597
2015-02-04,4.21226293332564
2015-02-05,4.17484413412509
2015-02-06,4.00962022443895
2015-02-09,4.1205422170483
2015-02-10,3.91021398210665
2015-02-11,3.85588904888504
2015-02-12,3.67541054711234
2015-02-13,3.79722522700983
2015-02-17,3.65504714722822
2015-02-18,3.63822779751804
2015-02-19,3.46937822745418
2015-02-20,3.39873349414257
2015-02-23,3.40521199085675
2015-02-24,3.37757793456238
2015-02-25,3.31570846808609
2015-02-26,3.22542189014947
2015-02-27,3.37823879431554
2015-03-02,3.38928783993382
2015-03-03,3.36658878947703
2015-03-04,3.44782155107731
2015-03-05,3.3085480536881
2015-03-06,3.25199718018942
2015-03-09,3.43952293517743
2015-03-10,3.3980817720661
2015-03-11,3.44126503925327
2015-03-12,3.46895963229124
2015-03-13,3.42841690748371
2015-03-16,3.44345824307303
2015-03-17,3.4396479332603
2015-03-18,3.42440594125115
2015-03-19,3.53773502670452
2015-03-20,3.43678928341146
2015-03-23,4.20929574066606
2015-03-24,3.82572245445655
2015-03-25,3.61447785975496
2015-03-26,3.58990503512842
2015-03-27,3.66716876251019
2015-03-30,3.31865113853586
2015-03-31,3.16286387289684
2015-04-01,3.27345344883747
2015-04-02,3.34341928603699
2015-04-06,3.2886650460171
2015-04-07,3.25342006195265
2015-04-08,3.27272899098773
2015-04-09,3.22588269026088
2015-04-10,3.16099156506351
2015-04-13,3.17864766118561
2015-04-14,3.15956476628137
2015-04-15,3.16229864419066
2015-04-16,3.41464772269937
2015-04-17,3.53655460534141
2015-04-20,3.43583690956467
2015-04-21,3.30291340934036
2015-04-22,3.23742468898358
2015-04-23,3.36702953602231
2015-04-24,3.46667469988161
2015-04-27,3.42152343264607
2015-04-28,3.51325110510593
2015-04-29,3.48575149883578
2015-04-30,3.65746869828734
2015-05-01,3.85526410578587
2015-05-04,3.80060405719631
2015-05-05,3.57586636292067
2015-05-06,3.57916648105273
2015-05-07,3.7049211400654
2015-05-08,3.71660678549967
2015-05-11,3.54282082201605
2015-05-12,3.39845731394347
2015-05-13,3.25426591847406
2015-05-14,3.25965082969304
2015-05-15,3.28821678552948
2015-05-18,3.23910062719016
2015-05-19,3.083516214933
2015-05-20,3.23552219015783
2015-05-21,3.12206918106982
2015-05-22,3.05815961225197
2015-05-26,2.86415320958773
2015-05-27,3.09766964530126
2015-05-28,3.03844395971432
2015-05-29,2.9857948925641
2015-06-01,3.37187662050477
2015-06-02,3.18289073397135
2015-06-03,3.10485999742901
2015-06-04,3.19665795966683
2015-06-05,3.20902641658108
2015-06-08,3.187756474264
2015-06-09,3.05136493931943
2015-06-10,3.06543348174882
2015-06-11,3.25101552327628
2015-06-12,3.16629158388217
2015-06-15,2.93709150884451
2015-06-16,3.08362103461818
2015-06-17,3.07594397971604
2015-06-18,3.00649298946793
2015-06-19,3.18832943707867
2015-06-22,3.5938132562338
2015-06-23,3.39566157787485
2015-06-24,3.28374412578607
2015-06-25,3.2128577419735
2015-06-26,3.20259859252661
2015-06-29,3.75855705874912
2015-06-30,3.80507937985794
2015-07-01,3.78899016829718
2015-07-02,3.81807383493485
2015-07-06,3.52610039092654
2015-07-07,3.55768591056145
2015-07-08,3.87648545911746
2015-07-09,3.75319434696168
2015-07-10,3.60309025262659
2015-07-13,3.44331084447436
2015-07-14,3.39814169799395
2015-07-15,3.24105932178154
2015-07-16,3.33455853607393
2015-07-17,3.29601698555774
2015-07-20,3.21051053957554
2015-07-21,3.23377035564562
2015-07-22,3.22441773097729
2015-07-23,3.41925832410822
2015-07-24,3.56949246562492
2015-07-27,3.74326616950159
2015-07-28,3.78807258047297
2015-07-29,3.86846768616384
2015-07-30,3.86599728841093
2015-07-31,3.82592614293235
2015-08-03,3.79882760045725
2015-08-04,3.62315052266903
2015-08-05,3.60010773991594
2015-08-06,3.7477535674144
2015-08-07,3.81769868236519
2015-08-10,3.83070148363254
2015-08-11,3.61994760844257
2015-08-12,3.75244498604923
2015-08-13,3.93230497562611
2015-08-14,3.62784050137756
2015-08-17,3.39010853951209
2015-08-18,3.15900698154051
2015-08-19,3.09086651762189
2015-08-20,3.21970154363294
2015-08-21,3.44072677014441
2015-08-24,3.94963743428367
2015-08-25,4.8334332776972
2015-08-26,5.06659173807175
2015-08-27,5.10111153437115
2015-08-28,5.04170693918957
2015-08-31,4.59311389892437
2015-09-01,4.45084991976726
2015-09-02,4.3162844944644
2015-09-03,4.22780243464138
2015-09-04,4.00225781194467
2015-09-08,3.65658858192213
2015-09-09,3.62303990224988
2015-09-10,3.62387559803478
2015-09-11,3.65063362434683
2015-09-14,3.44847341354491
2015-09-15,3.3188284321124
2015-09-16,3.4155114896575
2015-09-17,3.43696119143597
2015-09-18,3.66084809811211
2015-09-21,4.35627171309386
2015-09-22,4.04516944592968
2015-09-23,3.98004664635393
2015-09-24,3.67724040141337
2015-09-25,3.94695253147503
2015-09-28,3.82134429201432
2015-09-29,3.92953104597009
2015-09-30,4.05074338520514
2015-10-01,4.28023396050598
2015-10-02,4.17608877612291
2015-10-05,4.13240525995277
2015-10-06,4.20756813343705
2015-10-07,4.21008725217317
2015-10-08,4.4272777296362
2015-10-09,4.2179123469581
2015-10-12,3.99872160692337
2015-10-13,3.65037131522301
2015-10-14,3.67159644169752
2015-10-15,3.53147082465092
2015-10-16,3.61286257362873
2015-10-19,3.56021006273972
2015-10-20,3.54362242760122
2015-10-21,3.36819204875926
2015-10-22,3.50472061189968
2015-10-23,3.79046348913113
2015-10-26,3.93919623051813
2015-10-27,3.8299554078994
2015-10-28,3.97129318549303
2015-10-29,4.18211377057458
2015-10-30,4.11833992965769
2015-11-02,4.19439056051217
2015-11-03,4.03345125566957
2015-11-04,4.14303128031739
2015-11-05,4.08600256214267
2015-11-06,4.02461472757869
2015-11-09,4.13616180300719
2015-11-10,4.03846227226272
2015-11-11,3.91851750507493
2015-11-12,3.93457463277951
2015-11-13,4.00503786377771
2015-11-16,3.99291217734447
2015-11-17,4.05275811771758
2015-11-18,4.12466168735771
2015-11-19,3.99966946456075
2015-11-20,3.87797912996438
2015-11-23,3.88539244574817
2015-11-24,3.83074450493104
2015-11-25,3.90393031304347
2015-11-27,3.40191569861008
2015-11-30,2.8598288736128
2015-12-01,3.27678790818386
2015-12-02,3.53637700421722
2015-12-03,3.5423088591278
2015-12-04,3.77021777712176
2015-12-07,3.9896953734153
2015-12-08,3.90061127840633
2015-12-09,4.03975245529493
2015-12-10,4.18523605848592
2015-12-11,4.08423736881832
2015-12-14,4.05307325993802
2015-12-15,4.3803268520529
2015-12-16,4.31868647955026
2015-12-17,4.36298092146776
2015-12-18,4.35092135237054
2015-12-21,5.1623536947503
2015-12-22,4.76895722155128
2015-12-23,4.31450462054278
2015-12-24,4.01500388308832
2015-12-28,3.10617738837328
2015-12-29,2.90469658620317
2015-12-30,2.74050940714979
2015-12-31,2.693628214696
2016-01-04,2.61313390596435
2016-01-05,3.1740109399193
2016-01-06,3.33904445361783
2016-01-07,3.65695493473803
2016-01-08,4.11304272300216
2016-01-11,4.28127312287333
2016-01-12,4.33969064642169
2016-01-13,4.5911927086218
2016-01-14,4.68054117524062
2016-01-15,4.82648724245406
2016-01-19,5.12591364440241
2016-01-20,5.06546712581188
2016-01-21,5.47214282476123
2016-01-22,5.28755098779583
2016-01-25,5.17231930918987
2016-01-26,5.03442747214417
2016-01-27,4.79091925412277
2016-01-28,4.63146854053799
2016-01-29,4.70932467008357
2016-02-01,4.94550802991846
2016-02-02,4.76144351885402
2016-02-03,4.56496796674717
2016-02-04,4.86554342137193
2016-02-05,4.97931653731041
2016-02-08,4.88963144393096
2016-02-09,5.18709358920317
2016-02-10,5.23654709330656
2016-02-11,4.85899228602183
2016-02-12,5.07679539138442
2016-02-16,4.95274402009086
2016-02-17,4.8907720522551
2016-02-18,4.89917489514342
2016-02-19,4.77443573270405
2016-02-22,4.49333584924433
2016-02-23,4.34785108405307
2016-02-24,4.23891932437896
2016-02-25,4.31869526278173
2016-02-26,4.09591443596661
2016-02-29,4.29174816358853
2016-03-01,4.39711423634335
2016-03-02,4.49985212922214
2016-03-03,4.50334758700908
2016-03-04,4.65575922454645
2016-03-07,5.18553994606267
2016-03-08,5.03755689441042
2016-03-09,4.90141363638574
2016-03-10,4.60002806505803
2016-03-11,4.51085197943158
2016-03-14,4.37143400648127
2016-03-15,4.19907537484231
2016-03-16,3.93610791522062
2016-03-17,3.91706965368251
2016-03-18,4.12065879545732
2016-03-21,4.93105859024334
2016-03-22,4.35422707225085
2016-03-23,4.04225637691585
2016-03-24,3.91414810478627
2016-03-28,3.84936140403084
2016-03-29,3.33958516401526
2016-03-30,3.56077931911122
2016-03-31,3.60362205500022
2016-04-01,3.66182372512462
2016-04-04,3.62196633780267
2016-04-05,3.6139045792912
2016-04-06,3.698225169214
2016-04-07,3.76533109918635
2016-04-08,3.80959171774142
2016-04-11,3.68175348442452
2016-04-12,3.62828144936288
2016-04-13,3.89696763125027
2016-04-14,3.87376822273318
2016-04-15,3.84752146017565
2016-04-18,3.751631703239
2016-04-19,3.68099047878115
2016-04-20,3.69943802210421
2016-04-21,3.97413574167286
2016-04-22,3.90827358144137
2016-04-25,3.87867834974852
2016-04-26,3.69958470629006
2016-04-27,3.75563829284053
2016-04-28,3.703088336485
2016-04-29,3.96397367554998
2016-05-02,4.22171227393027
2016-05-03,3.99988548151549
2016-05-04,4.10587586452763
2016-05-05,4.12152362618259
2016-05-06,4.10385227452719
2016-05-09,3.96666286285685
2016-05-10,3.82347243071556
2016-05-11,3.83385113352751
2016-05-12,3.75823061222905
2016-05-13,3.76500782738319
2016-05-16,3.65650935044774
2016-05-17,3.64373276925562
2016-05-18,3.81164123417733
2016-05-19,3.81236373787275
2016-05-20,3.87308976085626
2016-05-23,3.7314236442534
2016-05-24,3.53397782835004
2016-05-25,3.50557412387306
2016-05-26,3.62190121476912
2016-05-27,3.44598511997124
2016-05-31,3.41720163659131
2016-06-01,3.82445592225529
2016-06-02,3.62387279177353
2016-06-03,3.71779371740336
2016-06-06,3.64218659055704
2016-06-07,3.52750457222385
2016-06-08,3.49475864911545
2016-06-09,3.55592755387998
2016-06-10,3.48298578728777
2016-06-13,3.45293198840243
2016-06-14,3.5666064137506
2016-06-15,3.61499957550053
2016-06-16,3.44849459171395
2016-06-17,3.60407069257798
2016-06-20,3.99653016766924
2016-06-21,3.95388750031565
2016-06-22,3.66462035531967
2016-06-23,3.47750337314309
2016-06-24,3.3701750917406
2016-06-27,4.73040832440375
2016-06-28,5.0311563233019
2016-06-29,4.74247554439399
2016-06-30,4.59115533412689
2016-07-01,4.70163422342051
2016-07-05,4.15688906579385
2016-07-06,4.00080126455419
2016-07-07,3.95714073811125
2016-07-08,3.79273807629162
2016-07-11,3.76957389784625
2016-07-12,3.61321475423309
2016-07-13,3.67892455713078
2016-07-14,3.70518937788172
2016-07-15,3.55486818393293
2016-07-18,3.3770145503764
2016-07-19,3.29504597500513
2016-07-20,3.2212411326048
2016-07-21,3.27550840445915
2016-07-22,3.2110251211278
2016-07-25,3.16066756406258
2016-07-26,3.13429629073043
2016-07-27,3.30617284763717
2016-07-28,3.45439178090632
2016-07-29,3.5610960065699
2016-08-01,3.65943154095782
2016-08-02,3.5732269048069
2016-08-03,3.73754989009376
2016-08-04,3.68233269338161
2016-08-05,3.69025942612526
2016-08-08,3.66884034339372
2016-08-09,3.50913883148306
2016-08-10,3.49036260182293
2016-08-11,3.44602211655284
2016-08-12,3.4603691192636
2016-08-15,3.29354503352783
2016-08-16,3.29065691059423
2016-08-17,3.14110877123443
2016-08-18,3.23470002032731
2016-08-19,3.24552349216488
2016-08-22,3.1815436228236
2016-08-23,3.03751009819852
2016-08-24,3.02857744960469
2016-08-25,3.02314493318271
2016-08-26,3.04593448797152
2016-08-29,3.16015494079575
2016-08-30,2.90073888186778
2016-08-31,3.04131402857456
2016-09-01,3.32704733785918
2016-09-02,3.22994887084736
2016-09-06,3.19566789871095
2016-09-07,3.23331875776359
2016-09-08,3.30157274456415
2016-09-09,3.45778011100778
2016-09-12,3.62022224635364
2016-09-13,3.79901322122067
2016-09-14,3.9443715247459
2016-09-15,3.92523353400419
2016-09-16,3.70347181502291
2016-09-19,4.13099389964186
2016-09-20,3.89524488505118
2016-09-21,3.60660195012119
2016-09-22,3.58358583069731
2016-09-23,3.61046450469601
2016-09-26,3.41951420886174
2016-09-27,3.45624801837882
2016-09-28,3.49523846937391
2016-09-29,3.47212475988412
2016-09-30,3.82470963865349
2016-10-03,3.86807110613
2016-10-04,3.625463273368
2016-10-05,3.65462001497201
2016-10-06,3.69070558142763
2016-10-07,3.68810840964553
2016-10-10,3.55967326538788
2016-10-11,3.45082470749723
2016-10-12,3.45707403936532
2016-10-13,3.2835744507509
2016-10-14,3.41490962081088
2016-10-17,3.28517049235897
2016-10-18,3.17314448257993
2016-10-19,3.07940068228475
2016-10-20,3.2247139800311
2016-10-21,3.24292150495239
2016-10-24,3.30339231871944
2016-10-25,3.34821880492062
2016-10-26,3.42264984252401
2016-10-27,3.53891490024592
2016-10-28,3.71198937347763
2016-10-31,3.90481920053105
2016-11-01,3.91948067729437
2016-11-02,4.05182262656965
2016-11-03,4.17060918387014
2016-11-04,4.13110399367246
2016-11-07,3.91306311101665
2016-11-08,3.86388193812857
2016-11-09,3.86835238684156
2016-11-10,4.66423891007992
2016-11-11,5.35379446170657
2016-11-14,5.1146415223709
2016-11-15,5.31866281424994
2016-11-16,4.92623840240754
2016-11-17,4.57052327223268
2016-11-18,4.30388679638673
2016-11-21,4.04800776351713
2016-11-22,3.90725865528557
2016-11-23,3.99160528185048
2016-11-25,3.7557197525647
2016-11-28,2.99031863021154
2016-11-29,3.12703944450035
2016-11-30,3.41159152954642
2016-12-01,4.17555038543749
2016-12-02,4.42798909139727
2016-12-05,4.15341987682098
2016-12-06,4.06861837946866
2016-12-07,3.98797583341541
2016-12-08,4.14753341996527
2016-12-09,4.15450792687218
2016-12-12,4.05485717177579
2016-12-13,4.09105812715241
2016-12-14,4.0868686057484
2016-12-15,4.15215992953296
2016-12-16,4.09778930744074
2016-12-19,4.73445094916124
2016-12-20,4.19926150256079
2016-12-21,4.03339063243094
2016-12-22,3.59202308465924
2016-12-23,3.29809573180354
2016-12-27,2.91454632219616
2016-12-28,2.55139923169549
2016-12-29,2.46708509592454
