"date","volume"
2014-08-04,3.59239440581876
2014-08-05,3.48145373138983
2014-08-06,3.37605061364745
2014-08-07,3.43315499094082
2014-08-08,3.35514037970226
2014-08-11,3.19478108047237
2014-08-12,3.09061804915127
2014-08-13,2.9946909027618
2014-08-14,2.80578820358829
2014-08-15,2.74609636532748
2014-08-18,2.82872593790543
2014-08-19,2.79814681661179
2014-08-20,2.85596784345952
2014-08-21,2.78127060143403
2014-08-22,2.72378175620914
2014-08-25,2.50201856729394
2014-08-26,2.41960713765785
2014-08-27,2.42244170212546
2014-08-28,2.43030618539781
2014-08-29,2.44578353715091
2014-09-02,2.28837381782938
2014-09-03,2.47064451215372
2014-09-04,2.57464963209072
2014-09-05,2.73061255045559
2014-09-08,2.75070802712909
2014-09-09,2.75446300999087
2014-09-10,2.7879092017647
2014-09-11,2.81997740060495
2014-09-12,2.85101470604342
2014-09-15,2.95914114133928
2014-09-16,2.88927245780958
2014-09-17,2.96937623066835
2014-09-18,3.03898958801461
2014-09-19,3.09395449021237
2014-09-22,3.67356029072253
2014-09-23,3.55474109955386
2014-09-24,3.4523162016546
2014-09-25,3.39542112723946
2014-09-26,3.34402330410119
2014-09-29,3.19633500872424
2014-09-30,3.15234140573152
2014-10-01,3.40578936821314
2014-10-02,3.65314834161284
2014-10-03,3.75993163851553
2014-10-06,3.68207054088901
2014-10-07,3.56323689044097
2014-10-08,3.59282944562181
2014-10-09,3.86145415387275
2014-10-10,4.0082311408635
2014-10-13,4.17425316623576
2014-10-14,4.26108213285616
2014-10-15,4.50130609512862
2014-10-16,4.92352767497943
2014-10-17,4.9711682424227
2014-10-20,4.79362630588312
2014-10-21,4.33685099437403
2014-10-22,4.27951877391339
2014-10-23,4.0069269672924
2014-10-24,3.9777880834449
2014-10-27,3.74018515479411
2014-10-28,3.61523021520048
2014-10-29,3.74394395582767
2014-10-30,3.71493001061457
2014-10-31,3.58671855220414
2014-11-03,3.82220614005251
2014-11-04,3.72176146378595
2014-11-05,3.78710601748975
2014-11-06,3.76806041101067
2014-11-07,3.72340378529425
2014-11-10,3.70502419325923
2014-11-11,3.55435014780187
2014-11-12,3.34608597559072
2014-11-13,3.3439114866903
2014-11-14,3.44200931492429
2014-11-17,3.27205386515085
2014-11-18,3.2363223006932
2014-11-19,3.28520685853172
2014-11-20,3.30943202010044
2014-11-21,3.2389130440492
2014-11-24,3.49354891164228
2014-11-25,3.4752507604675
2014-11-26,3.42112378230031
2014-11-28,3.15476898611014
2014-12-01,3.01632624365064
2014-12-02,3.29587173909199
2014-12-03,3.42839104994814
2014-12-04,3.51960528980408
2014-12-05,3.54364727651785
2014-12-08,3.40335200931224
2014-12-09,3.53778733855605
2014-12-10,3.6690415853342
2014-12-11,3.80417346167603
2014-12-12,3.8294015061845
2014-12-15,3.96683609738452
2014-12-16,4.19808657521795
2014-12-17,4.41985333831078
2014-12-18,4.50434547200138
2014-12-19,4.56965514098842
2014-12-22,5.18065964741544
2014-12-23,4.56602633991124
2014-12-24,4.04880259011506
2014-12-26,3.16693618100717
2014-12-29,2.72556990142959
2014-12-30,2.69872853383998
2014-12-31,2.55829279528522
2015-01-02,2.65215673086941
2015-01-05,2.57435562700114
2015-01-06,3.02599853611159
2015-01-07,3.56175748395168
2015-01-08,3.58428769390561
2015-01-09,3.77449634904314
2015-01-12,3.53893785973734
2015-01-13,3.5559438658483
2015-01-14,3.79859443959777
2015-01-15,3.93138801204109
2015-01-16,4.1190225578453
2015-01-20,3.99713512590825
2015-01-21,3.98096150783734
2015-01-22,3.88524242689805
2015-01-23,3.96864435426446
2015-01-26,3.86686094120068
2015-01-27,3.83559768018455
2015-01-28,3.64051632331672
2015-01-29,3.69600934942214
2015-01-30,3.840551897066
2015-02-02,4.06844497866967
2015-02-03,4.03541627661842
2015-02-04,4.21395143511655
2015-02-05,4.17651763644648
2015-02-06,4.04595528084116
2015-02-09,4.09457512133498
2015-02-10,3.90139323895915
2015-02-11,3.81231874465899
2015-02-12,3.72884229772794
2015-02-13,3.73640074371782
2015-02-17,3.69681130286115
2015-02-18,3.64640560951967
2015-02-19,3.45548497722037
2015-02-20,3.38970772207509
2015-02-23,3.38452938348404
2015-02-24,3.39122249527625
2015-02-25,3.30136407932252
2015-02-26,3.26211803246713
2015-02-27,3.38631238872571
2015-03-02,3.34063470044004
2015-03-03,3.40823731546827
2015-03-04,3.42119525328281
2015-03-05,3.32220916496331
2015-03-06,3.25330075576143
2015-03-09,3.44090168116927
2015-03-10,3.39944390620839
2015-03-11,3.47737226829446
2015-03-12,3.44273134719381
2015-03-13,3.41940303412658
2015-03-16,3.4344503990931
2015-03-17,3.41897912966748
2015-03-18,3.41500092066684
2015-03-19,3.55148800845897
2015-03-20,3.47289471832871
2015-03-23,4.14863643742367
2015-03-24,3.84448667345785
2015-03-25,3.61592673710094
2015-03-26,3.61441241484786
2015-03-27,3.64063039088868
2015-03-30,3.33231629967147
2015-03-31,3.19885950376018
2015-04-01,3.24714679433477
2015-04-02,3.33437134105653
2015-04-06,3.2448673678688
2015-04-07,3.29502322382439
2015-04-08,3.28076029138761
2015-04-09,3.17716404918464
2015-04-10,3.17948932413224
2015-04-13,3.20299018680563
2015-04-14,3.16755070436671
2015-04-15,3.1135545152051
2015-04-16,3.45631551329876
2015-04-17,3.50996387653285
2015-04-20,3.44954904506712
2015-04-21,3.30423739487858
2015-04-22,3.27345020783669
2015-04-23,3.32910095961837
2015-04-24,3.49201440761193
2015-04-27,3.39595156739824
2015-04-28,3.52695005093181
2015-04-29,3.50620305719504
2015-04-30,3.60892306012165
2015-05-01,3.90876795139191
2015-05-04,3.76284928080607
2015-05-05,3.60124984054891
2015-05-06,3.56531723986246
2015-05-07,3.68435867225738
2015-05-08,3.74204667946738
2015-05-11,3.52895701152862
2015-05-12,3.35470364644786
2015-05-13,3.27280106692595
2015-05-14,3.29568525798011
2015-05-15,3.26191604896705
2015-05-18,3.19528308095402
2015-05-19,3.12505127019446
2015-05-20,3.24353857606854
2015-05-21,3.07330892594931
2015-05-22,3.07661615073708
2015-05-26,2.90002910113328
2015-05-27,3.03656474246488
2015-05-28,3.05689259510432
2015-05-29,3.02171954464593
2015-06-01,3.3108816345886
2015-06-02,3.20139727140613
2015-06-03,3.14083237721587
2015-06-04,3.15866108916152
2015-06-05,3.23426284500651
2015-06-08,3.1390225501475
2015-06-09,3.06981875413377
2015-06-10,3.08973062502975
2015-06-11,3.25903811974914
2015-06-12,3.11754905548184
2015-06-15,2.99022730143515
2015-06-16,3.04557885282688
2015-06-17,3.06639927681479
2015-06-18,3.0200330208094
2015-06-19,3.18960749119108
2015-06-22,3.59525385009401
2015-06-23,3.397022741873
2015-06-24,3.28506042724327
2015-06-25,3.21414562835123
2015-06-26,3.20388236648485
2015-06-29,3.79479147551616
2015-06-30,3.7442580449333
2015-07-01,3.84246744774059
2015-07-02,3.79198549360771
2015-07-06,3.5171256743693
2015-07-07,3.53706442294564
2015-07-08,3.90198944106614
2015-07-09,3.70468708079028
2015-07-10,3.62176522865388
2015-07-13,3.4677594613489
2015-07-14,3.40622327055958
2015-07-15,3.21541511680107
2015-07-16,3.34818585229653
2015-07-17,3.28166470338769
2015-07-20,3.22413235213632
2015-07-21,3.23506662492494
2015-07-22,3.26043803594128
2015-07-23,3.39301011605032
2015-07-24,3.54887571071209
2015-07-27,3.75705731775033
2015-07-28,3.79698589316454
2015-07-29,3.88907265777815
2015-07-30,3.85226302445251
2015-07-31,3.80541218044493
2015-08-03,3.82430045295474
2015-08-04,3.60931891265094
2015-08-05,3.59116268948906
2015-08-06,3.70413991666487
2015-08-07,3.87118746972684
2015-08-10,3.7698904194267
2015-08-11,3.67335712652598
2015-08-12,3.71467090491016
2015-08-13,3.95783133304258
2015-08-14,3.61401077135547
2015-08-17,3.34635152537816
2015-08-18,3.17750394508131
2015-08-19,3.09210550334834
2015-08-20,3.22099217337488
2015-08-21,3.44210599869813
2015-08-24,3.95122066163362
2015-08-25,4.85843913049343
2015-08-26,5.06368268301477
2015-08-27,5.12221061601092
2015-08-28,4.99371617824447
2015-08-31,4.64691351445667
2015-09-01,4.39028744444621
2015-09-02,4.36997314186564
2015-09-03,4.1902189023631
2015-09-04,4.02781221022451
2015-09-08,3.64277037567865
2015-09-09,3.61410404426843
2015-09-10,3.6149400750452
2015-09-11,3.60698104269474
2015-09-14,3.46708641081783
2015-09-15,3.34322714973336
2015-09-16,3.41194059273535
2015-09-17,3.45739319201294
2015-09-18,3.61230381459184
2015-09-21,4.40997638952543
2015-09-22,4.01917213675129
2015-09-23,3.93652611117814
2015-09-24,3.71901345329756
2015-09-25,3.94359466473762
2015-09-28,3.84193037403492
2015-09-29,3.91582224976265
2015-09-30,4.0303195415736
2015-10-01,4.29424035435812
2015-10-02,4.16208927411355
2015-10-05,4.14639661755644
2015-10-06,4.20925475329937
2015-10-07,4.23484323431861
2015-10-08,4.43577183533664
2015-10-09,4.16959136478361
2015-10-12,4.01755517330004
2015-10-13,3.67490293308329
2015-10-14,3.64505984492824
2015-10-15,3.5452212953759
2015-10-16,3.61431080348105
2015-10-19,3.59636497135086
2015-10-20,3.4826962866521
2015-10-21,3.42150064965869
2015-10-22,3.4785066617284
2015-10-23,3.78159474353815
2015-10-26,3.9187276727808
2015-10-27,3.84378130586263
2015-10-28,3.98027994286852
2015-10-29,4.20284446842764
2015-10-30,4.09304738598161
2015-11-02,4.22002197594294
2015-11-03,4.00812468404216
2015-11-04,4.16864210818324
2015-11-05,4.03762870342381
2015-11-06,4.04345867331232
2015-11-09,4.13781979936744
2015-11-10,4.04008110539046
2015-11-11,3.95481604260184
2015-11-12,3.89687355900953
2015-11-13,3.99586559173179
2015-11-16,4.02991597109438
2015-11-17,4.04944266355618
2015-11-18,4.14536935532233
2015-11-19,3.98598878360805
2015-11-20,3.86914546535247
2015-11-23,3.87656175279241
2015-11-24,3.81023247390256
2015-11-25,3.89471751164713
2015-11-27,3.45034202138495
2015-11-30,2.79862863138871
2015-12-01,3.31840043714659
2015-12-02,3.50978620421656
2015-12-03,3.55606367432057
2015-12-04,3.80645686813258
2015-12-07,3.92894804252144
2015-12-08,3.95413330160086
2015-12-09,4.01375297469501
2015-12-10,4.16486612675953
2015-12-11,4.07509684419848
2015-12-14,4.09010116948917
2015-12-15,4.37714270507801
2015-12-16,4.33947192309877
2015-12-17,4.34944587530931
2015-12-18,4.34227726846672
2015-12-21,5.14237544438494
2015-12-22,4.78315952200151
2015-12-23,4.33528838777702
2015-12-24,3.96660156427601
2015-12-28,3.12465317496855
2015-12-29,2.90586094499688
2015-12-30,2.77633573560179
2015-12-31,2.63236135029882
2016-01-04,2.63141205418418
2016-01-05,3.17528325440708
2016-01-06,3.34038292242405
2016-01-07,3.65842083918281
2016-01-08,4.11469145199031
2016-01-11,4.28298928766403
2016-01-12,4.37615801282152
2016-01-13,4.53068649024722
2016-01-14,4.69964805161251
2016-01-15,4.8631497431409
2016-01-19,5.08869012345536
2016-01-20,5.09144771563271
2016-01-21,5.42432460569568
2016-01-22,5.30690118638474
2016-01-25,5.19746100575467
2016-01-26,5.03150552391754
2016-01-27,4.77716620927423
2016-01-28,4.68038773429656
2016-01-29,4.68359359008013
2016-02-01,4.93710228837023
2016-02-02,4.71823620961867
2016-02-03,4.61875629987434
2016-02-04,4.82821553001998
2016-02-05,5.00526259333663
2016-02-08,4.87630750765916
2016-02-09,5.16712525591961
2016-02-10,5.22786847646985
2016-02-11,4.87327489882827
2016-02-12,5.07883044433484
2016-02-16,4.97779769905687
2016-02-17,4.89945195143666
2016-02-18,4.87419535216518
2016-02-19,4.80029966147208
2016-02-22,4.47985305635984
2016-02-23,4.33920576942039
2016-02-24,4.21857091179608
2016-02-25,4.30964872151006
2016-02-26,4.14461895080343
2016-02-29,4.25419026420154
2016-03-01,4.42282691433895
2016-03-02,4.45164416369329
2016-03-03,4.52238343464991
2016-03-04,4.69235328825094
2016-03-07,5.12527197406319
2016-03-08,5.05680688190589
2016-03-09,4.90337838688542
2016-03-10,4.60187200399276
2016-03-11,4.51266017178954
2016-03-14,4.39625466509347
2016-03-15,4.19581857251596
2016-03-16,3.95674000068079
2016-03-17,3.90335586227806
2016-03-18,4.11192240992232
2016-03-21,4.88791927186144
2016-03-22,4.37320314436004
2016-03-23,4.04387673092503
2016-03-24,3.93878545858673
2016-03-28,3.82289606503013
2016-03-29,3.3879865013557
2016-03-30,3.53458784028824
2016-03-31,3.5830189810645
2016-04-01,3.68724165909196
2016-04-04,3.60813425309952
2016-04-05,3.57023727466019
2016-04-06,3.75166606515858
2016-04-07,3.73922161573082
2016-04-08,3.78907120753687
2016-04-11,3.7071794073125
2016-04-12,3.60279246386094
2016-04-13,3.88775203883617
2016-04-14,3.88765590468615
2016-04-15,3.84906375394479
2016-04-18,3.78786334395065
2016-04-19,3.62011940234346
2016-04-20,3.74121997199
2016-04-21,3.94772041894509
2016-04-22,3.92217509500003
2016-04-25,3.88023313287663
2016-04-26,3.72413605152735
2016-04-27,3.72913538457037
2016-04-28,3.75163538546961
2016-04-29,3.93794381873487
2016-05-02,4.17828861135038
2016-05-03,4.05344729915599
2016-05-04,4.07990288975052
2016-05-05,4.10112815508276
2016-05-06,4.12944739733794
2016-05-09,3.91824116636073
2016-05-10,3.87696353250643
2016-05-11,3.77304133187095
2016-05-12,3.77696777686592
2016-05-13,3.7665170452454
2016-05-16,3.69270286099858
2016-05-17,3.61757454264205
2016-05-18,3.76805319304464
2016-05-19,3.86585038670138
2016-05-20,3.84702347287454
2016-05-23,3.72253123231162
2016-05-24,3.49027848477364
2016-05-25,3.52421001018524
2016-05-26,3.6233530677955
2016-05-27,3.48209424107493
2016-05-31,3.37929317186677
2016-06-01,3.81521126324386
2016-06-02,3.66072865466696
2016-06-03,3.72600342370987
2016-06-06,3.59363482649972
2016-06-07,3.54614924944056
2016-06-08,3.53088732127581
2016-06-09,3.52973413020826
2016-06-10,3.43926600335567
2016-06-13,3.49461512539691
2016-06-14,3.56309608380966
2016-06-15,3.60077515872799
2016-06-16,3.49693958581719
2016-06-17,3.54316878254827
2016-06-20,4.03843120808375
2016-06-21,3.95053241348717
2016-06-22,3.68514361394771
2016-06-23,3.42888559518494
2016-06-24,3.38875670283021
2016-06-27,4.76703231148691
2016-06-28,4.9708264660337
2016-06-29,4.76160724739587
2016-06-30,4.616064068878
2016-07-01,4.67551052125601
2016-07-05,4.17089023782522
2016-07-06,4.00240500112221
2016-07-07,3.95872697318939
2016-07-08,3.82898619465095
2016-07-11,3.74346611513288
2016-07-12,3.56954717308306
2016-07-13,3.7323577163508
2016-07-14,3.64432800166577
2016-07-15,3.57352382995859
2016-07-18,3.41309602436211
2016-07-19,3.26874797594955
2016-07-20,3.20048477980628
2016-07-21,3.26604369772478
2016-07-22,3.22464713996057
2016-07-25,3.16193452980685
2016-07-26,3.15862103793309
2016-07-27,3.31421755413556
2016-07-28,3.4404925232978
2016-07-29,3.51740753341949
2016-08-01,3.67812910160715
2016-08-02,3.60938703126922
2016-08-03,3.67670148571353
2016-08-04,3.70103943404593
2016-08-05,3.69173868080345
2016-08-08,3.67031101215026
2016-08-09,3.54527326799481
2016-08-10,3.46414289618811
2016-08-11,3.42535586807591
2016-08-12,3.48570629937769
2016-08-15,3.2679218676467
2016-08-16,3.28119827619678
2016-08-17,3.15470276382955
2016-08-18,3.23599666226629
2016-08-19,3.24682447273416
2016-08-22,3.18281895681628
2016-08-23,3.03872769579911
2016-08-24,3.02979146651876
2016-08-25,3.05908455717192
2016-08-26,3.01953663161866
2016-08-29,3.11630574887771
2016-08-30,2.95386010236813
2016-08-31,3.00325488785724
2016-09-01,3.31760329070441
2016-09-02,3.24357847533796
2016-09-06,3.19694889447393
2016-09-07,3.26934263073839
2016-09-08,3.27527736178925
2016-09-09,3.41405022328344
2016-09-12,3.67363187452671
2016-09-13,3.77291723937325
2016-09-14,3.92390504154515
2016-09-15,3.93909762457056
2016-09-16,3.72401064740794
2016-09-19,4.10570642835829
2016-09-20,3.90909695455233
2016-09-21,3.62710195184846
2016-09-22,3.56973836102034
2016-09-23,3.56679582109788
2016-09-26,3.47284338244636
2016-09-27,3.41835520554654
2016-09-28,3.48586184228082
2016-09-29,3.52057922623111
2016-09-30,3.76389617259356
2016-10-03,3.88685230075114
2016-10-04,3.62691655425926
2016-10-05,3.65608498345523
2016-10-06,3.72691279966913
2016-10-07,3.62724018645779
2016-10-10,3.61305862226915
2016-10-11,3.41292972070992
2016-10-12,3.48240989863397
2016-10-13,3.25794728812334
2016-10-14,3.44022857831025
2016-10-17,3.27120340174636
2016-10-18,3.12930049756966
2016-10-19,3.13259352005467
2016-10-20,3.19838778812495
2016-10-21,3.23383327505002
2016-10-24,3.29432832877525
2016-10-25,3.30444499912553
2016-10-26,3.44125248831921
2016-10-27,3.54033348788907
2016-10-28,3.74820512340899
2016-10-31,3.86710619918166
2016-11-01,3.94500189404156
2016-11-02,4.03816285141244
2016-11-03,4.15023338890482
2016-11-04,4.12198225571938
2016-11-07,3.92696654447666
2016-11-08,3.86543079005819
2016-11-09,3.86990303076774
2016-11-10,4.68917694066342
2016-11-11,5.32793218048083
2016-11-14,5.15209496564127
2016-11-15,5.29278645036825
2016-11-16,4.94054797107826
2016-11-17,4.57235538405777
2016-11-18,4.30561202595539
2016-11-21,4.04963042299174
2016-11-22,3.93189324742371
2016-11-23,3.99992474657527
2016-11-25,3.70721349871185
2016-11-28,3.00874797437818
2016-11-29,3.16302071500384
2016-11-30,3.3736808159889
2016-12-01,4.18951481647611
2016-12-02,4.44881834931796
2016-12-05,4.13980082731213
2016-12-06,4.05986113333284
2016-12-07,3.97918626140497
2016-12-08,4.13880780722682
2016-12-09,4.14578510989164
2016-12-12,4.04609440940696
2016-12-13,4.07065044384017
2016-12-14,4.10079748835469
2016-12-15,4.17287862027368
2016-12-16,4.08414795820428
2016-12-19,4.69123281985055
2016-12-20,4.2412438086103
2016-12-21,4.03006741473861
2016-12-22,3.61251724239224
2016-12-23,3.28413382232285
2016-12-27,2.87059867711911
2016-12-28,2.5696526333338
2016-12-29,2.5028018211902
